09:42:36 588	Layer<3-4-2>:测试设备开始
09:42:36 655	Layer<3-4-2>:测试设备成功
09:42:36 660	Layer<3-4-2>:校验芯片开始
09:42:36 665	Layer<3-4-2>:校验芯片成功
09:42:36 669	Layer<3-4-2>:获取FlashInfo开始
09:42:36 672	<LAYER 3-4-2> INFO:FlashInfo: 00 F0 D1 01 00 04 04 00 28 00 01
09:42:36 675	<LAYER 3-4-2> INFO:GetFlashInfo-->Emmc storage.
09:42:36 679	Layer<3-4-2>:获取FlashInfo成功
09:42:36 682	Layer<3-4-2>:准备IDB开始
09:42:36 686	<LAYER 3-4-2> INFO:CS(1)		(14910MB)		(SAMSUNG)
09:42:36 693	Layer<3-4-2>:准备IDB成功
09:42:36 698	Layer<3-4-2>:下载IDB开始
09:42:36 836	Layer<3-4-2>:下载IDB成功
09:42:36 842	Layer<3-4-2>:重启设备开始
09:42:37 848	Layer<3-4-2>:重启设备成功
09:42:37 855	Layer<3-4-2>:等待Loader开始
09:42:38 372	Layer<3-4-2>:等待Loader成功
09:42:38 377	Layer<3-4-2>:测试设备开始
09:42:38 382	Layer<3-4-2>:测试设备成功
09:42:38 417	Layer<3-4-2>: Download parameter...
09:42:38 495	Layer<3-4-2>: Download uboot...
09:42:39 301	Layer<3-4-2>: Download trust...
09:42:40 172	Layer<3-4-2>: Download resource...
09:42:40 228	Layer<3-4-2>: Download kernel...
09:42:43 927	Layer<3-4-2>: RunProc is ending, ret=1
10:23:11 062	Layer<3-4-2>:测试设备开始
10:23:11 069	Layer<3-4-2>:测试设备成功
10:23:11 074	Layer<3-4-2>:校验芯片开始
10:23:11 079	Layer<3-4-2>:校验芯片成功
10:23:11 085	Layer<3-4-2>:获取FlashInfo开始
10:23:11 089	<LAYER 3-4-2> INFO:FlashInfo: 00 F0 D1 01 00 04 04 00 28 00 01
10:23:11 094	<LAYER 3-4-2> INFO:GetFlashInfo-->Emmc storage.
10:23:11 099	Layer<3-4-2>:获取FlashInfo成功
10:23:11 104	Layer<3-4-2>:准备IDB开始
10:23:11 109	<LAYER 3-4-2> INFO:CS(1)		(14910MB)		(SAMSUNG)
10:23:11 118	Layer<3-4-2>:准备IDB成功
10:23:11 123	Layer<3-4-2>:下载IDB开始
10:23:11 271	Layer<3-4-2>:下载IDB成功
10:23:11 277	Layer<3-4-2>:重启设备开始
10:23:12 284	Layer<3-4-2>:重启设备成功
10:23:12 291	Layer<3-4-2>:等待Loader开始
10:23:12 781	Layer<3-4-2>:等待Loader成功
10:23:12 787	Layer<3-4-2>:测试设备开始
10:23:12 794	Layer<3-4-2>:测试设备成功
10:23:12 801	Layer<3-4-2>: Download parameter...
10:23:12 856	Layer<3-4-2>: Download uboot...
10:23:13 408	Layer<3-4-2>: Download trust...
10:23:13 954	Layer<3-4-2>: Download resource...
10:23:14 026	Layer<3-4-2>: Download kernel...
10:23:16 630	Layer<3-4-2>: RunProc is ending, ret=1
10:27:04 452	Layer<3-4-2>:测试设备开始
10:27:04 458	Layer<3-4-2>:测试设备成功
10:27:04 462	Layer<3-4-2>:校验芯片开始
10:27:04 466	Layer<3-4-2>:校验芯片成功
10:27:04 469	Layer<3-4-2>:获取FlashInfo开始
10:27:04 473	<LAYER 3-4-2> INFO:FlashInfo: 00 F0 D1 01 00 04 04 00 28 00 01
10:27:04 476	<LAYER 3-4-2> INFO:GetFlashInfo-->Emmc storage.
10:27:04 479	Layer<3-4-2>:获取FlashInfo成功
10:27:04 483	Layer<3-4-2>:准备IDB开始
10:27:04 486	<LAYER 3-4-2> INFO:CS(1)		(14910MB)		(SAMSUNG)
10:27:04 493	Layer<3-4-2>:准备IDB成功
10:27:04 498	Layer<3-4-2>:下载IDB开始
10:27:04 638	Layer<3-4-2>:下载IDB成功
10:27:04 644	Layer<3-4-2>:重启设备开始
10:27:05 650	Layer<3-4-2>:重启设备成功
10:27:05 655	Layer<3-4-2>:等待Loader开始
10:27:06 172	Layer<3-4-2>:等待Loader成功
10:27:06 185	Layer<3-4-2>:测试设备开始
10:27:06 195	Layer<3-4-2>:测试设备成功
10:27:06 205	Layer<3-4-2>: Download parameter...
10:27:06 280	Layer<3-4-2>: Download uboot...
10:27:06 804	Layer<3-4-2>: Download trust...
10:27:07 359	Layer<3-4-2>: Download resource...
10:27:07 418	Layer<3-4-2>: Download kernel...
10:27:11 512	Layer<3-4-2>: RunProc is ending, ret=1
10:31:34 166	Layer<3-4-2>:下载Boot开始
10:31:37 298	Layer<3-4-2>:下载Boot成功
10:31:37 307	Layer<3-4-2>:等待Maskrom开始
10:31:38 084	Layer<3-4-2>:等待Maskrom成功
10:31:38 090	Layer<3-4-2>:测试设备开始
10:31:38 097	Layer<3-4-2>:测试设备成功
10:31:38 102	Layer<3-4-2>:校验芯片开始
10:31:38 108	Layer<3-4-2>:校验芯片成功
10:31:38 113	Layer<3-4-2>:获取FlashInfo开始
10:31:38 117	<LAYER 3-4-2> INFO:FlashInfo: 00 F0 D1 01 00 04 04 00 28 00 01
10:31:38 122	<LAYER 3-4-2> INFO:GetFlashInfo-->Emmc storage.
10:31:38 129	Layer<3-4-2>:获取FlashInfo成功
10:31:38 134	Layer<3-4-2>:准备IDB开始
10:31:38 139	<LAYER 3-4-2> INFO:CS(1)		(14910MB)		(SAMSUNG)
10:31:38 149	Layer<3-4-2>:准备IDB成功
10:31:38 154	Layer<3-4-2>:下载IDB开始
10:31:38 372	Layer<3-4-2>:下载IDB成功
10:31:38 380	Layer<3-4-2>:重启设备开始
10:31:39 386	Layer<3-4-2>:重启设备成功
10:31:39 395	Layer<3-4-2>:等待Loader开始
10:31:39 947	Layer<3-4-2>:等待Loader成功
10:31:39 953	Layer<3-4-2>:测试设备开始
10:31:39 960	Layer<3-4-2>:测试设备成功
10:31:39 967	Layer<3-4-2>: Download parameter...
10:31:40 025	Layer<3-4-2>: Download uboot...
10:31:40 573	Layer<3-4-2>: Download trust...
10:31:41 118	Layer<3-4-2>: Download resource...
10:31:41 185	Layer<3-4-2>: Download kernel...
10:31:43 624	Layer<3-4-2>: RunProc is ending, ret=1
10:35:47 428	Layer<3-4-2>:下载Boot开始
10:35:50 567	Layer<3-4-2>:下载Boot成功
10:35:50 576	Layer<3-4-2>:等待Maskrom开始
10:35:51 233	Layer<3-4-2>:等待Maskrom成功
10:35:51 241	Layer<3-4-2>:测试设备开始
10:35:51 263	Layer<3-4-2>:测试设备成功
10:35:51 270	Layer<3-4-2>:校验芯片开始
10:35:51 275	Layer<3-4-2>:校验芯片成功
10:35:51 281	Layer<3-4-2>:获取FlashInfo开始
10:35:51 289	<LAYER 3-4-2> INFO:FlashInfo: 00 F0 D1 01 00 04 04 00 28 00 01
10:35:51 299	<LAYER 3-4-2> INFO:GetFlashInfo-->Emmc storage.
10:35:51 310	Layer<3-4-2>:获取FlashInfo成功
10:35:51 316	Layer<3-4-2>:准备IDB开始
10:35:51 320	<LAYER 3-4-2> INFO:CS(1)		(14910MB)		(SAMSUNG)
10:35:51 332	Layer<3-4-2>:准备IDB成功
10:35:51 337	Layer<3-4-2>:下载IDB开始
10:35:51 563	Layer<3-4-2>:下载IDB成功
10:35:51 569	Layer<3-4-2>:重启设备开始
10:35:52 576	Layer<3-4-2>:重启设备成功
10:35:52 585	Layer<3-4-2>:等待Loader开始
10:35:53 064	Layer<3-4-2>:等待Loader成功
10:35:53 071	Layer<3-4-2>:测试设备开始
10:35:53 078	Layer<3-4-2>:测试设备成功
10:35:53 086	Layer<3-4-2>: Download parameter...
10:35:53 141	Layer<3-4-2>: Download uboot...
10:35:53 678	Layer<3-4-2>: Download trust...
10:35:54 559	Layer<3-4-2>: Download resource...
10:35:54 621	Layer<3-4-2>: Download kernel...
10:35:57 031	Layer<3-4-2>: RunProc is ending, ret=1
11:05:25 651	Layer<3-4-2>:测试设备开始
11:05:25 659	Layer<3-4-2>:测试设备成功
11:05:25 666	Layer<3-4-2>:校验芯片开始
11:05:25 672	Layer<3-4-2>:校验芯片成功
11:05:25 679	Layer<3-4-2>:获取FlashInfo开始
11:05:25 684	<LAYER 3-4-2> INFO:FlashInfo: 00 F0 D1 01 00 04 04 00 28 00 01
11:05:25 690	<LAYER 3-4-2> INFO:GetFlashInfo-->Emmc storage.
11:05:25 695	Layer<3-4-2>:获取FlashInfo成功
11:05:25 701	Layer<3-4-2>:准备IDB开始
11:05:25 707	<LAYER 3-4-2> INFO:CS(1)		(14910MB)		(SAMSUNG)
11:05:25 717	Layer<3-4-2>:准备IDB成功
11:05:25 723	Layer<3-4-2>:下载IDB开始
11:05:25 865	Layer<3-4-2>:下载IDB成功
11:05:25 871	Layer<3-4-2>:重启设备开始
11:05:26 876	Layer<3-4-2>:重启设备成功
11:05:26 881	Layer<3-4-2>:等待Loader开始
11:05:27 367	Layer<3-4-2>:等待Loader成功
11:05:27 371	Layer<3-4-2>:测试设备开始
11:05:27 376	Layer<3-4-2>:测试设备成功
11:05:27 383	Layer<3-4-2>: Download parameter...
11:05:27 436	Layer<3-4-2>: Download uboot...
11:05:27 957	Layer<3-4-2>: Download trust...
11:05:28 812	Layer<3-4-2>: Download resource...
11:05:28 876	Layer<3-4-2>: Download kernel...
11:05:33 264	Layer<3-4-2>: RunProc is ending, ret=1
11:11:42 579	Layer<3-4-2>:测试设备开始
11:11:42 587	Layer<3-4-2>:测试设备成功
11:11:42 591	Layer<3-4-2>:校验芯片开始
11:11:42 597	Layer<3-4-2>:校验芯片成功
11:11:42 603	Layer<3-4-2>:获取FlashInfo开始
11:11:42 608	<LAYER 3-4-2> INFO:FlashInfo: 00 F0 D1 01 00 04 04 00 28 00 01
11:11:42 613	<LAYER 3-4-2> INFO:GetFlashInfo-->Emmc storage.
11:11:42 618	Layer<3-4-2>:获取FlashInfo成功
11:11:42 623	Layer<3-4-2>:准备IDB开始
11:11:42 628	<LAYER 3-4-2> INFO:CS(1)		(14910MB)		(SAMSUNG)
11:11:42 636	Layer<3-4-2>:准备IDB成功
11:11:42 641	Layer<3-4-2>:下载IDB开始
11:11:42 782	Layer<3-4-2>:下载IDB成功
11:11:42 789	Layer<3-4-2>:重启设备开始
11:11:43 796	Layer<3-4-2>:重启设备成功
11:11:43 803	Layer<3-4-2>:等待Loader开始
11:11:44 296	Layer<3-4-2>:等待Loader成功
11:11:44 302	Layer<3-4-2>:测试设备开始
11:11:44 309	Layer<3-4-2>:测试设备成功
11:11:44 319	Layer<3-4-2>: Download parameter...
11:11:44 370	Layer<3-4-2>: Download uboot...
11:11:44 891	Layer<3-4-2>: Download trust...
11:11:45 434	Layer<3-4-2>: Download resource...
11:11:45 492	Layer<3-4-2>: Download kernel...
11:11:50 491	Layer<3-4-2>: RunProc is ending, ret=1
15:01:03 991	Layer<3-4-2>:测试设备开始
15:01:04 017	Layer<3-4-2>:测试设备成功
15:01:04 023	Layer<3-4-2>:校验芯片开始
15:01:04 028	Layer<3-4-2>:校验芯片成功
15:01:04 034	Layer<3-4-2>:获取FlashInfo开始
15:01:04 039	<LAYER 3-4-2> INFO:FlashInfo: 00 F0 D1 01 00 04 04 00 28 00 01
15:01:04 044	<LAYER 3-4-2> INFO:GetFlashInfo-->Emmc storage.
15:01:04 050	Layer<3-4-2>:获取FlashInfo成功
15:01:04 055	Layer<3-4-2>:准备IDB开始
15:01:04 060	<LAYER 3-4-2> INFO:CS(1)		(14910MB)		(SAMSUNG)
15:01:04 070	Layer<3-4-2>:准备IDB成功
15:01:04 075	Layer<3-4-2>:下载IDB开始
15:01:04 213	Layer<3-4-2>:下载IDB成功
15:01:04 219	Layer<3-4-2>:重启设备开始
15:01:05 224	Layer<3-4-2>:重启设备成功
15:01:05 233	Layer<3-4-2>:等待Loader开始
15:01:05 831	Layer<3-4-2>:等待Loader成功
15:01:05 836	Layer<3-4-2>:测试设备开始
15:01:05 841	Layer<3-4-2>:测试设备成功
15:01:05 861	Layer<3-4-2>: Download parameter...
15:01:05 926	Layer<3-4-2>: Download uboot...
15:01:06 470	Layer<3-4-2>: Download trust...
15:01:07 008	Layer<3-4-2>: Download resource...
15:01:07 069	Layer<3-4-2>: Download kernel...
15:01:09 856	Layer<3-4-2>: RunProc is ending, ret=1
15:04:01 723	Layer<3-4-2>:测试设备开始
15:04:01 745	Layer<3-4-2>:测试设备成功
15:04:01 751	Layer<3-4-2>:校验芯片开始
15:04:01 757	Layer<3-4-2>:校验芯片成功
15:04:01 763	Layer<3-4-2>:获取FlashInfo开始
15:04:01 767	<LAYER 3-4-2> INFO:FlashInfo: 00 F0 D1 01 00 04 04 00 28 00 01
15:04:01 771	<LAYER 3-4-2> INFO:GetFlashInfo-->Emmc storage.
15:04:01 777	Layer<3-4-2>:获取FlashInfo成功
15:04:01 782	Layer<3-4-2>:准备IDB开始
15:04:01 786	<LAYER 3-4-2> INFO:CS(1)		(14910MB)		(SAMSUNG)
15:04:01 795	Layer<3-4-2>:准备IDB成功
15:04:01 801	Layer<3-4-2>:下载IDB开始
15:04:01 938	Layer<3-4-2>:下载IDB成功
15:04:01 944	Layer<3-4-2>:重启设备开始
15:04:02 950	Layer<3-4-2>:重启设备成功
15:04:02 957	Layer<3-4-2>:等待Loader开始
15:04:03 463	Layer<3-4-2>:等待Loader成功
15:04:03 470	Layer<3-4-2>:测试设备开始
15:04:03 479	Layer<3-4-2>:测试设备成功
15:04:03 488	Layer<3-4-2>: Download parameter...
15:04:03 542	Layer<3-4-2>: Download uboot...
15:04:04 078	Layer<3-4-2>: Download trust...
15:04:04 611	Layer<3-4-2>: Download resource...
15:04:04 667	Layer<3-4-2>: Download kernel...
15:04:08 667	Layer<3-4-2>: RunProc is ending, ret=1
15:09:50 554	Layer<3-4-2>:测试设备开始
15:09:50 561	Layer<3-4-2>:测试设备成功
15:09:50 566	Layer<3-4-2>:校验芯片开始
15:09:50 574	Layer<3-4-2>:校验芯片成功
15:09:50 579	Layer<3-4-2>:获取FlashInfo开始
15:09:50 586	<LAYER 3-4-2> INFO:FlashInfo: 00 F0 D1 01 00 04 04 00 28 00 01
15:09:50 591	<LAYER 3-4-2> INFO:GetFlashInfo-->Emmc storage.
15:09:50 598	Layer<3-4-2>:获取FlashInfo成功
15:09:50 603	Layer<3-4-2>:准备IDB开始
15:09:50 608	<LAYER 3-4-2> INFO:CS(1)		(14910MB)		(SAMSUNG)
15:09:50 615	Layer<3-4-2>:准备IDB成功
15:09:50 619	Layer<3-4-2>:下载IDB开始
15:09:50 752	Layer<3-4-2>:下载IDB成功
15:09:50 757	Layer<3-4-2>:重启设备开始
15:09:51 762	Layer<3-4-2>:重启设备成功
15:09:51 780	Layer<3-4-2>:等待Loader开始
15:09:52 307	Layer<3-4-2>:等待Loader成功
15:09:52 313	Layer<3-4-2>:测试设备开始
15:09:52 318	Layer<3-4-2>:测试设备成功
15:09:52 324	Layer<3-4-2>: Download parameter...
15:09:52 373	Layer<3-4-2>: Download uboot...
15:09:52 950	Layer<3-4-2>: Download trust...
15:09:53 472	Layer<3-4-2>: Download resource...
15:09:53 529	Layer<3-4-2>: Download kernel...
15:09:57 645	Layer<3-4-2>: RunProc is ending, ret=1
15:11:52 663	Layer<3-4-2>:测试设备开始
15:11:52 669	Layer<3-4-2>:测试设备成功
15:11:52 676	Layer<3-4-2>:校验芯片开始
15:11:52 683	Layer<3-4-2>:校验芯片成功
15:11:52 689	Layer<3-4-2>:获取FlashInfo开始
15:11:52 694	<LAYER 3-4-2> INFO:FlashInfo: 00 F0 D1 01 00 04 04 00 28 00 01
15:11:52 699	<LAYER 3-4-2> INFO:GetFlashInfo-->Emmc storage.
15:11:52 704	Layer<3-4-2>:获取FlashInfo成功
15:11:52 709	Layer<3-4-2>:准备IDB开始
15:11:52 714	<LAYER 3-4-2> INFO:CS(1)		(14910MB)		(SAMSUNG)
15:11:52 724	Layer<3-4-2>:准备IDB成功
15:11:52 729	Layer<3-4-2>:下载IDB开始
15:11:52 875	Layer<3-4-2>:下载IDB成功
15:11:52 915	Layer<3-4-2>:重启设备开始
15:11:53 921	Layer<3-4-2>:重启设备成功
15:11:53 929	Layer<3-4-2>:等待Loader开始
15:11:54 461	Layer<3-4-2>:等待Loader成功
15:11:54 467	Layer<3-4-2>:测试设备开始
15:11:54 473	Layer<3-4-2>:测试设备成功
15:11:54 482	Layer<3-4-2>: Download parameter...
15:11:54 538	Layer<3-4-2>: Download uboot...
15:11:55 071	Layer<3-4-2>: Download trust...
15:11:55 606	Layer<3-4-2>: Download resource...
15:11:55 663	Layer<3-4-2>: Download kernel...
15:12:00 449	Layer<3-4-2>: RunProc is ending, ret=1
15:12:59 378	Layer<3-4-2>:测试设备开始
15:12:59 387	Layer<3-4-2>:测试设备成功
15:12:59 402	Layer<3-4-2>:校验芯片开始
15:12:59 408	Layer<3-4-2>:校验芯片成功
15:12:59 414	Layer<3-4-2>:获取FlashInfo开始
15:12:59 418	<LAYER 3-4-2> INFO:FlashInfo: 00 F0 D1 01 00 04 04 00 28 00 01
15:12:59 423	<LAYER 3-4-2> INFO:GetFlashInfo-->Emmc storage.
15:12:59 428	Layer<3-4-2>:获取FlashInfo成功
15:12:59 434	Layer<3-4-2>:准备IDB开始
15:12:59 438	<LAYER 3-4-2> INFO:CS(1)		(14910MB)		(SAMSUNG)
15:12:59 447	Layer<3-4-2>:准备IDB成功
15:12:59 452	Layer<3-4-2>:下载IDB开始
15:12:59 589	Layer<3-4-2>:下载IDB成功
15:12:59 622	Layer<3-4-2>:重启设备开始
15:13:00 627	Layer<3-4-2>:重启设备成功
15:13:00 633	Layer<3-4-2>:等待Loader开始
15:13:01 131	Layer<3-4-2>:等待Loader成功
15:13:01 135	Layer<3-4-2>:测试设备开始
15:13:01 140	Layer<3-4-2>:测试设备成功
15:13:01 149	Layer<3-4-2>: Download parameter...
15:13:01 204	Layer<3-4-2>: Download uboot...
15:13:01 736	Layer<3-4-2>: Download trust...
15:13:02 287	Layer<3-4-2>: Download resource...
15:13:02 343	Layer<3-4-2>: Download kernel...
15:13:06 128	Layer<3-4-2>: RunProc is ending, ret=1
15:43:45 193	Layer<3-4-2>:测试设备开始
15:43:45 201	Layer<3-4-2>:测试设备成功
15:43:45 206	Layer<3-4-2>:校验芯片开始
15:43:45 221	Layer<3-4-2>:校验芯片成功
15:43:45 228	Layer<3-4-2>:获取FlashInfo开始
15:43:45 232	<LAYER 3-4-2> INFO:FlashInfo: 00 F0 D1 01 00 04 04 00 28 00 01
15:43:45 238	<LAYER 3-4-2> INFO:GetFlashInfo-->Emmc storage.
15:43:45 244	Layer<3-4-2>:获取FlashInfo成功
15:43:45 250	Layer<3-4-2>:准备IDB开始
15:43:45 254	<LAYER 3-4-2> INFO:CS(1)		(14910MB)		(SAMSUNG)
15:43:45 264	Layer<3-4-2>:准备IDB成功
15:43:45 269	Layer<3-4-2>:下载IDB开始
15:43:45 407	Layer<3-4-2>:下载IDB成功
15:43:45 413	Layer<3-4-2>:重启设备开始
15:43:46 421	Layer<3-4-2>:重启设备成功
15:43:46 429	Layer<3-4-2>:等待Loader开始
15:43:46 947	Layer<3-4-2>:等待Loader成功
15:43:46 954	Layer<3-4-2>:测试设备开始
15:43:46 960	Layer<3-4-2>:测试设备成功
15:43:46 969	Layer<3-4-2>: Download parameter...
15:43:47 028	Layer<3-4-2>: Download uboot...
15:43:47 555	Layer<3-4-2>: Download trust...
15:43:48 092	Layer<3-4-2>: Download resource...
15:43:48 152	Layer<3-4-2>: Download kernel...
15:43:52 591	Layer<3-4-2>: RunProc is ending, ret=1
15:51:38 819	Layer<3-4-2>:测试设备开始
15:51:38 826	Layer<3-4-2>:测试设备成功
15:51:38 830	Layer<3-4-2>:校验芯片开始
15:51:38 835	Layer<3-4-2>:校验芯片成功
15:51:38 841	Layer<3-4-2>:获取FlashInfo开始
15:51:38 846	<LAYER 3-4-2> INFO:FlashInfo: 00 F0 D1 01 00 04 04 00 28 00 01
15:51:38 850	<LAYER 3-4-2> INFO:GetFlashInfo-->Emmc storage.
15:51:38 854	Layer<3-4-2>:获取FlashInfo成功
15:51:38 857	Layer<3-4-2>:准备IDB开始
15:51:38 865	<LAYER 3-4-2> INFO:CS(1)		(14910MB)		(SAMSUNG)
15:51:38 872	Layer<3-4-2>:准备IDB成功
15:51:38 876	Layer<3-4-2>:下载IDB开始
15:51:39 010	Layer<3-4-2>:下载IDB成功
15:51:39 014	Layer<3-4-2>:重启设备开始
15:51:40 019	Layer<3-4-2>:重启设备成功
15:51:40 026	Layer<3-4-2>:等待Loader开始
15:51:40 563	Layer<3-4-2>:等待Loader成功
15:51:40 569	Layer<3-4-2>:测试设备开始
15:51:40 575	Layer<3-4-2>:测试设备成功
15:51:40 584	Layer<3-4-2>: Download parameter...
15:51:40 636	Layer<3-4-2>: Download uboot...
15:51:41 157	Layer<3-4-2>: Download trust...
15:51:41 677	Layer<3-4-2>: Download resource...
15:51:41 769	Layer<3-4-2>: Download kernel...
15:51:44 516	Layer<3-4-2>: RunProc is ending, ret=1
16:35:49 227	Layer<3-4-2>:测试设备开始
16:35:49 235	Layer<3-4-2>:测试设备成功
16:35:49 243	Layer<3-4-2>:校验芯片开始
16:35:49 250	Layer<3-4-2>:校验芯片成功
16:35:49 257	Layer<3-4-2>:获取FlashInfo开始
16:35:49 264	<LAYER 3-4-2> INFO:FlashInfo: 00 F0 D1 01 00 04 04 00 28 00 01
16:35:49 267	<LAYER 3-4-2> INFO:GetFlashInfo-->Emmc storage.
16:35:49 274	Layer<3-4-2>:获取FlashInfo成功
16:35:49 280	Layer<3-4-2>:准备IDB开始
16:35:49 285	<LAYER 3-4-2> INFO:CS(1)		(14910MB)		(SAMSUNG)
16:35:49 294	Layer<3-4-2>:准备IDB成功
16:35:49 298	Layer<3-4-2>:下载IDB开始
16:35:49 432	Layer<3-4-2>:下载IDB成功
16:35:49 437	Layer<3-4-2>:重启设备开始
16:35:50 443	Layer<3-4-2>:重启设备成功
16:35:50 452	Layer<3-4-2>:等待Loader开始
16:35:51 014	Layer<3-4-2>:等待Loader成功
16:35:51 022	Layer<3-4-2>:测试设备开始
16:35:51 031	Layer<3-4-2>:测试设备成功
16:35:51 045	Layer<3-4-2>: Download parameter...
16:35:51 138	Layer<3-4-2>: Download uboot...
16:35:51 675	Layer<3-4-2>: Download trust...
16:35:52 244	Layer<3-4-2>: Download resource...
16:35:52 326	Layer<3-4-2>: Download kernel...
16:35:56 727	Layer<3-4-2>: RunProc is ending, ret=1
16:40:30 303	Layer<3-4-2>:测试设备开始
16:40:30 310	Layer<3-4-2>:测试设备成功
16:40:30 315	Layer<3-4-2>:校验芯片开始
16:40:30 322	Layer<3-4-2>:校验芯片成功
16:40:30 327	Layer<3-4-2>:获取FlashInfo开始
16:40:30 345	<LAYER 3-4-2> INFO:FlashInfo: 00 F0 D1 01 00 04 04 00 28 00 01
16:40:30 349	<LAYER 3-4-2> INFO:GetFlashInfo-->Emmc storage.
16:40:30 354	Layer<3-4-2>:获取FlashInfo成功
16:40:30 365	Layer<3-4-2>:准备IDB开始
16:40:30 369	<LAYER 3-4-2> INFO:CS(1)		(14910MB)		(SAMSUNG)
16:40:30 376	Layer<3-4-2>:准备IDB成功
16:40:30 381	Layer<3-4-2>:下载IDB开始
16:40:30 527	Layer<3-4-2>:下载IDB成功
16:40:30 534	Layer<3-4-2>:重启设备开始
16:40:31 540	Layer<3-4-2>:重启设备成功
16:40:31 546	Layer<3-4-2>:等待Loader开始
16:40:32 112	Layer<3-4-2>:等待Loader成功
16:40:32 117	Layer<3-4-2>:测试设备开始
16:40:32 123	Layer<3-4-2>:测试设备成功
16:40:32 131	Layer<3-4-2>: Download parameter...
16:40:32 188	Layer<3-4-2>: Download uboot...
16:40:32 714	Layer<3-4-2>: Download trust...
16:40:33 247	Layer<3-4-2>: Download resource...
16:40:33 304	Layer<3-4-2>: Download kernel...
16:40:37 594	Layer<3-4-2>: RunProc is ending, ret=1
16:57:50 869	Layer<3-4-2>:测试设备开始
16:57:50 876	Layer<3-4-2>:测试设备成功
16:57:50 883	Layer<3-4-2>:校验芯片开始
16:57:50 889	Layer<3-4-2>:校验芯片成功
16:57:50 895	Layer<3-4-2>:获取FlashInfo开始
16:57:50 900	<LAYER 3-4-2> INFO:FlashInfo: 00 F0 D1 01 00 04 04 00 28 00 01
16:57:50 905	<LAYER 3-4-2> INFO:GetFlashInfo-->Emmc storage.
16:57:50 911	Layer<3-4-2>:获取FlashInfo成功
16:57:50 917	Layer<3-4-2>:准备IDB开始
16:57:50 921	<LAYER 3-4-2> INFO:CS(1)		(14910MB)		(SAMSUNG)
16:57:50 931	Layer<3-4-2>:准备IDB成功
16:57:50 938	Layer<3-4-2>:下载IDB开始
16:57:51 075	Layer<3-4-2>:下载IDB成功
16:57:51 083	Layer<3-4-2>:重启设备开始
16:57:52 090	Layer<3-4-2>:重启设备成功
16:57:52 097	Layer<3-4-2>:等待Loader开始
16:57:52 656	Layer<3-4-2>:等待Loader成功
16:57:52 662	Layer<3-4-2>:测试设备开始
16:57:52 668	Layer<3-4-2>:测试设备成功
16:57:52 677	Layer<3-4-2>: Download parameter...
16:57:52 733	Layer<3-4-2>: Download uboot...
16:57:53 257	Layer<3-4-2>: Download trust...
16:57:53 788	Layer<3-4-2>: Download resource...
16:57:53 849	Layer<3-4-2>: Download kernel...
16:57:57 875	Layer<3-4-2>: RunProc is ending, ret=1
17:03:59 421	Layer<3-4-2>:测试设备开始
17:03:59 438	Layer<3-4-2>:测试设备成功
17:03:59 443	Layer<3-4-2>:校验芯片开始
17:03:59 448	Layer<3-4-2>:校验芯片成功
17:03:59 453	Layer<3-4-2>:获取FlashInfo开始
17:03:59 457	<LAYER 3-4-2> INFO:FlashInfo: 00 F0 D1 01 00 04 04 00 28 00 01
17:03:59 463	<LAYER 3-4-2> INFO:GetFlashInfo-->Emmc storage.
17:03:59 467	Layer<3-4-2>:获取FlashInfo成功
17:03:59 470	Layer<3-4-2>:准备IDB开始
17:03:59 473	<LAYER 3-4-2> INFO:CS(1)		(14910MB)		(SAMSUNG)
17:03:59 481	Layer<3-4-2>:准备IDB成功
17:03:59 487	Layer<3-4-2>:下载IDB开始
17:03:59 624	Layer<3-4-2>:下载IDB成功
17:03:59 630	Layer<3-4-2>:重启设备开始
17:04:00 635	Layer<3-4-2>:重启设备成功
17:04:00 642	Layer<3-4-2>:等待Loader开始
17:04:01 189	Layer<3-4-2>:等待Loader成功
17:04:01 196	Layer<3-4-2>:测试设备开始
17:04:01 204	Layer<3-4-2>:测试设备成功
17:04:01 212	Layer<3-4-2>: Download parameter...
17:04:01 269	Layer<3-4-2>: Download uboot...
17:04:01 796	Layer<3-4-2>: Download trust...
17:04:02 319	Layer<3-4-2>: Download resource...
17:04:02 376	Layer<3-4-2>: Download kernel...
17:04:05 923	Layer<3-4-2>: RunProc is ending, ret=1
17:14:26 119	Layer<3-4-2>:测试设备开始
17:14:26 132	Layer<3-4-2>:测试设备成功
17:14:26 142	Layer<3-4-2>:校验芯片开始
17:14:26 147	Layer<3-4-2>:校验芯片成功
17:14:26 153	Layer<3-4-2>:获取FlashInfo开始
17:14:26 168	<LAYER 3-4-2> INFO:FlashInfo: 00 00 E9 00 00 04 04 00 28 00 01
17:14:26 171	<LAYER 3-4-2> INFO:GetFlashInfo-->Emmc storage.
17:14:26 176	Layer<3-4-2>:获取FlashInfo成功
17:14:26 180	Layer<3-4-2>:准备IDB开始
17:14:26 185	<LAYER 3-4-2> INFO:CS(1)		(7456MB)		(SAMSUNG)
17:14:26 194	Layer<3-4-2>:准备IDB成功
17:14:26 203	Layer<3-4-2>:下载IDB开始
17:14:27 332	Layer<3-4-2>:下载IDB成功
17:14:27 340	Layer<3-4-2>:重启设备开始
17:14:28 346	Layer<3-4-2>:重启设备成功
17:14:28 353	Layer<3-4-2>:等待Loader开始
17:14:28 906	Layer<3-4-2>:等待Loader成功
17:14:28 924	Layer<3-4-2>:测试设备开始
17:14:28 942	Layer<3-4-2>:测试设备成功
17:14:28 950	Layer<3-4-2>:下载固件开始
17:14:29 029	<LAYER 3-4-2> INFO:Start download image,total=1655388028,band=64
17:14:29 057	<LAYER 3-4-2> INFO:Start to download trust,offset=0x4000,size=4194304
17:14:29 222	<LAYER 3-4-2> INFO:Start to download uboot,offset=0x2000,size=4194304
17:14:29 386	<LAYER 3-4-2> INFO:Start to download misc,offset=0x6000,size=49152
17:14:29 401	<LAYER 3-4-2> INFO:Start to download resource,offset=0x8000,size=8265216
17:14:29 700	<LAYER 3-4-2> INFO:Start to download kernel,offset=0x10000,size=18590716
17:14:30 363	<LAYER 3-4-2> INFO:Start to download boot,offset=0x1c000,size=1990432
17:14:30 443	<LAYER 3-4-2> INFO:Start to download recovery,offset=0x2c000,size=7483872
17:14:30 742	<LAYER 3-4-2> INFO:Start to download system,offset=0xb4000,size=1610612736
17:15:32 617	<LAYER 3-4-2> INFO:Start to check trust,offset=0x4000,size=4194304
17:15:32 739	<LAYER 3-4-2> INFO:Start to check uboot,offset=0x2000,size=4194304
17:15:32 861	<LAYER 3-4-2> INFO:Start to check misc,offset=0x6000,size=49152
17:15:32 878	<LAYER 3-4-2> INFO:Start to check resource,offset=0x8000,size=8265216
17:15:33 118	<LAYER 3-4-2> INFO:Start to check kernel,offset=0x10000,size=18590716
17:15:33 646	<LAYER 3-4-2> INFO:Start to check boot,offset=0x1c000,size=1990432
17:15:33 707	<LAYER 3-4-2> INFO:Start to check recovery,offset=0x2c000,size=7483872
17:15:33 924	<LAYER 3-4-2> INFO:Start to check system,offset=0xb4000,size=1610612736
17:16:18 272	Layer<3-4-2>:下载固件成功
17:16:18 281	Layer<3-4-2>:重启设备开始
17:16:19 289	Layer<3-4-2>:重启设备成功
17:20:36 951	Layer<3-4-2>:测试设备开始
17:20:36 964	Layer<3-4-2>:测试设备成功
17:20:36 970	Layer<3-4-2>:校验芯片开始
17:20:36 975	Layer<3-4-2>:校验芯片成功
17:20:36 980	Layer<3-4-2>:获取FlashInfo开始
17:20:36 988	<LAYER 3-4-2> INFO:FlashInfo: 00 F0 D1 01 00 04 04 00 28 00 01
17:20:36 994	<LAYER 3-4-2> INFO:GetFlashInfo-->Emmc storage.
17:20:37 000	Layer<3-4-2>:获取FlashInfo成功
17:20:37 005	Layer<3-4-2>:准备IDB开始
17:20:37 010	<LAYER 3-4-2> INFO:CS(1)		(14910MB)		(SAMSUNG)
17:20:37 019	Layer<3-4-2>:准备IDB成功
17:20:37 029	Layer<3-4-2>:下载IDB开始
17:20:37 174	Layer<3-4-2>:下载IDB成功
17:20:37 183	Layer<3-4-2>:重启设备开始
17:20:38 191	Layer<3-4-2>:重启设备成功
17:20:38 197	Layer<3-4-2>:等待Loader开始
17:20:38 773	Layer<3-4-2>:等待Loader成功
17:20:38 782	Layer<3-4-2>:测试设备开始
17:20:38 789	Layer<3-4-2>:测试设备成功
17:20:38 797	Layer<3-4-2>: Download parameter...
17:20:38 870	Layer<3-4-2>: Download uboot...
17:20:39 436	Layer<3-4-2>: Download trust...
17:20:39 971	Layer<3-4-2>: Download resource...
17:20:40 032	Layer<3-4-2>: Download kernel...
17:20:44 400	Layer<3-4-2>: RunProc is ending, ret=1
17:23:31 411	Layer<3-4-2>:测试设备开始
17:23:31 418	Layer<3-4-2>:测试设备成功
17:23:31 425	Layer<3-4-2>:校验芯片开始
17:23:31 431	Layer<3-4-2>:校验芯片成功
17:23:31 436	Layer<3-4-2>:获取FlashInfo开始
17:23:31 439	<LAYER 3-4-2> INFO:FlashInfo: 00 F0 D1 01 00 04 04 00 28 00 01
17:23:31 443	<LAYER 3-4-2> INFO:GetFlashInfo-->Emmc storage.
17:23:31 449	Layer<3-4-2>:获取FlashInfo成功
17:23:31 455	Layer<3-4-2>:准备IDB开始
17:23:31 463	<LAYER 3-4-2> INFO:CS(1)		(14910MB)		(SAMSUNG)
17:23:31 474	Layer<3-4-2>:准备IDB成功
17:23:31 480	Layer<3-4-2>:下载IDB开始
17:23:31 628	Layer<3-4-2>:下载IDB成功
17:23:31 634	Layer<3-4-2>:重启设备开始
17:23:32 640	Layer<3-4-2>:重启设备成功
17:23:32 648	Layer<3-4-2>:等待Loader开始
17:23:33 206	Layer<3-4-2>:等待Loader成功
17:23:33 212	Layer<3-4-2>:测试设备开始
17:23:33 220	Layer<3-4-2>:测试设备成功
17:23:33 229	Layer<3-4-2>: Download parameter...
17:23:33 293	Layer<3-4-2>: Download uboot...
17:23:33 820	Layer<3-4-2>: Download trust...
17:23:34 358	Layer<3-4-2>: Download resource...
17:23:34 420	Layer<3-4-2>: Download kernel...
17:23:37 122	Layer<3-4-2>: RunProc is ending, ret=1
17:28:53 561	Layer<3-4-2>:测试设备开始
17:28:53 569	Layer<3-4-2>:测试设备成功
17:28:53 574	Layer<3-4-2>:校验芯片开始
17:28:53 580	Layer<3-4-2>:校验芯片成功
17:28:53 585	Layer<3-4-2>:获取FlashInfo开始
17:28:53 590	<LAYER 3-4-2> INFO:FlashInfo: 00 F0 D1 01 00 04 04 00 28 00 01
17:28:53 595	<LAYER 3-4-2> INFO:GetFlashInfo-->Emmc storage.
17:28:53 602	Layer<3-4-2>:获取FlashInfo成功
17:28:53 607	Layer<3-4-2>:准备IDB开始
17:28:53 616	<LAYER 3-4-2> INFO:CS(1)		(14910MB)		(SAMSUNG)
17:28:53 625	Layer<3-4-2>:准备IDB成功
17:28:53 633	Layer<3-4-2>:下载IDB开始
17:28:53 780	Layer<3-4-2>:下载IDB成功
17:28:53 787	Layer<3-4-2>:重启设备开始
17:28:54 793	Layer<3-4-2>:重启设备成功
17:28:54 800	Layer<3-4-2>:等待Loader开始
17:28:55 347	Layer<3-4-2>:等待Loader成功
17:28:55 354	Layer<3-4-2>:测试设备开始
17:28:55 361	Layer<3-4-2>:测试设备成功
17:28:55 368	Layer<3-4-2>: Download parameter...
17:28:55 428	Layer<3-4-2>: Download uboot...
17:28:55 953	Layer<3-4-2>: Download trust...
17:28:56 474	Layer<3-4-2>: Download resource...
17:28:56 535	Layer<3-4-2>: Download kernel...
17:28:59 882	Layer<3-4-2>: RunProc is ending, ret=1
17:33:13 744	Layer<3-4-2>:测试设备开始
17:33:13 749	Layer<3-4-2>:测试设备成功
17:33:13 753	Layer<3-4-2>:校验芯片开始
17:33:13 759	Layer<3-4-2>:校验芯片成功
17:33:13 764	Layer<3-4-2>:获取FlashInfo开始
17:33:13 768	<LAYER 3-4-2> INFO:FlashInfo: 00 F0 D1 01 00 04 04 00 28 00 01
17:33:13 774	<LAYER 3-4-2> INFO:GetFlashInfo-->Emmc storage.
17:33:13 780	Layer<3-4-2>:获取FlashInfo成功
17:33:13 784	Layer<3-4-2>:准备IDB开始
17:33:13 798	<LAYER 3-4-2> INFO:CS(1)		(14910MB)		(SAMSUNG)
17:33:13 808	Layer<3-4-2>:准备IDB成功
17:33:13 814	Layer<3-4-2>:下载IDB开始
17:33:13 959	Layer<3-4-2>:下载IDB成功
17:33:13 967	Layer<3-4-2>:重启设备开始
17:33:14 974	Layer<3-4-2>:重启设备成功
17:33:14 981	Layer<3-4-2>:等待Loader开始
17:33:15 538	Layer<3-4-2>:等待Loader成功
17:33:15 545	Layer<3-4-2>:测试设备开始
17:33:15 551	Layer<3-4-2>:测试设备成功
17:33:15 561	Layer<3-4-2>: Download parameter...
17:33:15 620	Layer<3-4-2>: Download uboot...
17:33:16 138	Layer<3-4-2>: Download trust...
17:33:16 663	Layer<3-4-2>: Download resource...
17:33:16 721	Layer<3-4-2>: Download kernel...
17:33:21 027	Layer<3-4-2>: RunProc is ending, ret=1
17:34:07 126	Layer<3-4-2>:测试设备开始
17:34:07 137	Layer<3-4-2>:测试设备成功
17:34:07 143	Layer<3-4-2>:校验芯片开始
17:34:07 148	Layer<3-4-2>:校验芯片成功
17:34:07 153	Layer<3-4-2>:获取FlashInfo开始
17:34:07 157	<LAYER 3-4-2> INFO:FlashInfo: 00 F0 D1 01 00 04 04 00 28 00 01
17:34:07 162	<LAYER 3-4-2> INFO:GetFlashInfo-->Emmc storage.
17:34:07 167	Layer<3-4-2>:获取FlashInfo成功
17:34:07 171	Layer<3-4-2>:准备IDB开始
17:34:07 175	<LAYER 3-4-2> INFO:CS(1)		(14910MB)		(SAMSUNG)
17:34:07 185	Layer<3-4-2>:准备IDB成功
17:34:07 191	Layer<3-4-2>:下载IDB开始
17:34:07 347	Layer<3-4-2>:下载IDB成功
17:34:07 353	Layer<3-4-2>:重启设备开始
17:34:08 361	Layer<3-4-2>:重启设备成功
17:34:08 368	Layer<3-4-2>:等待Loader开始
17:34:08 913	Layer<3-4-2>:等待Loader成功
17:34:08 918	Layer<3-4-2>:测试设备开始
17:34:08 924	Layer<3-4-2>:测试设备成功
17:34:08 930	Layer<3-4-2>: Download parameter...
17:34:08 987	Layer<3-4-2>: Download uboot...
17:34:09 508	Layer<3-4-2>: Download trust...
17:34:10 036	Layer<3-4-2>: Download resource...
17:34:10 064	Error:RKU_Write-->WriteFile failed,bRet=0,err=31,size=31,write=0
17:34:12 073	INFO:RKU_ResetPipe-->DeviceIoControl OK
17:34:12 108	Layer<3-4-2>: Download kernel...
17:34:16 154	Layer<3-4-2>: RunProc is ending, ret=1
17:34:37 302	Layer<3-4-2>:测试设备开始
17:34:37 307	Layer<3-4-2>:测试设备成功
17:34:37 311	Layer<3-4-2>:校验芯片开始
17:34:37 317	Layer<3-4-2>:校验芯片成功
17:34:37 323	Layer<3-4-2>:获取FlashInfo开始
17:34:37 326	<LAYER 3-4-2> INFO:FlashInfo: 00 F0 D1 01 00 04 04 00 28 00 01
17:34:37 329	<LAYER 3-4-2> INFO:GetFlashInfo-->Emmc storage.
17:34:37 333	Layer<3-4-2>:获取FlashInfo成功
17:34:37 337	Layer<3-4-2>:准备IDB开始
17:34:37 342	<LAYER 3-4-2> INFO:CS(1)		(14910MB)		(SAMSUNG)
17:34:37 356	Layer<3-4-2>:准备IDB成功
17:34:37 363	Layer<3-4-2>:下载IDB开始
17:34:37 500	Layer<3-4-2>:下载IDB成功
17:34:37 505	Layer<3-4-2>:重启设备开始
17:34:38 510	Layer<3-4-2>:重启设备成功
17:34:38 516	Layer<3-4-2>:等待Loader开始
17:34:39 069	Layer<3-4-2>:等待Loader成功
17:34:39 075	Layer<3-4-2>:测试设备开始
17:34:39 080	Layer<3-4-2>:测试设备成功
17:34:39 086	Layer<3-4-2>: Download parameter...
17:34:39 141	Layer<3-4-2>: Download uboot...
17:34:39 675	Layer<3-4-2>: Download trust...
17:34:40 195	Layer<3-4-2>: Download resource...
17:34:40 251	Layer<3-4-2>: Download kernel...
17:34:43 961	Layer<3-4-2>: RunProc is ending, ret=1
17:39:59 865	Layer<3-4-2>:测试设备开始
17:39:59 872	Layer<3-4-2>:测试设备成功
17:39:59 879	Layer<3-4-2>:校验芯片开始
17:39:59 898	Layer<3-4-2>:校验芯片成功
17:39:59 903	Layer<3-4-2>:获取FlashInfo开始
17:39:59 907	<LAYER 3-4-2> INFO:FlashInfo: 00 F0 D1 01 00 04 04 00 28 00 01
17:39:59 913	<LAYER 3-4-2> INFO:GetFlashInfo-->Emmc storage.
17:39:59 918	Layer<3-4-2>:获取FlashInfo成功
17:39:59 923	Layer<3-4-2>:准备IDB开始
17:39:59 928	<LAYER 3-4-2> INFO:CS(1)		(14910MB)		(SAMSUNG)
17:39:59 937	Layer<3-4-2>:准备IDB成功
17:39:59 946	Layer<3-4-2>:下载IDB开始
17:40:00 087	Layer<3-4-2>:下载IDB成功
17:40:00 100	Layer<3-4-2>:重启设备开始
17:40:01 106	Layer<3-4-2>:重启设备成功
17:40:01 114	Layer<3-4-2>:等待Loader开始
17:40:01 625	Layer<3-4-2>:等待Loader成功
17:40:01 634	Layer<3-4-2>:测试设备开始
17:40:01 641	Layer<3-4-2>:测试设备成功
17:40:01 648	Layer<3-4-2>: Download parameter...
17:40:01 712	Layer<3-4-2>: Download uboot...
17:40:02 238	Layer<3-4-2>: Download trust...
17:40:02 760	Layer<3-4-2>: Download resource...
17:40:02 823	Layer<3-4-2>: Download kernel...
17:40:06 812	Layer<3-4-2>: RunProc is ending, ret=1
17:41:28 358	Layer<3-4-2>:测试设备开始
17:41:28 364	Layer<3-4-2>:测试设备成功
17:41:28 368	Layer<3-4-2>:校验芯片开始
17:41:28 374	Layer<3-4-2>:校验芯片成功
17:41:28 379	Layer<3-4-2>:获取FlashInfo开始
17:41:28 383	<LAYER 3-4-2> INFO:FlashInfo: 00 F0 D1 01 00 04 04 00 28 00 01
17:41:28 387	<LAYER 3-4-2> INFO:GetFlashInfo-->Emmc storage.
17:41:28 392	Layer<3-4-2>:获取FlashInfo成功
17:41:28 396	Layer<3-4-2>:准备IDB开始
17:41:28 403	<LAYER 3-4-2> INFO:CS(1)		(14910MB)		(SAMSUNG)
17:41:28 422	Layer<3-4-2>:准备IDB成功
17:41:28 427	Layer<3-4-2>:下载IDB开始
17:41:28 576	Layer<3-4-2>:下载IDB成功
17:41:28 589	Layer<3-4-2>:重启设备开始
17:41:29 595	Layer<3-4-2>:重启设备成功
17:41:29 600	Layer<3-4-2>:等待Loader开始
17:41:30 158	Layer<3-4-2>:等待Loader成功
17:41:30 163	Layer<3-4-2>:测试设备开始
17:41:30 168	Layer<3-4-2>:测试设备成功
17:41:30 176	Layer<3-4-2>: Download parameter...
17:41:30 232	Layer<3-4-2>: Download uboot...
17:41:30 754	Layer<3-4-2>: Download trust...
17:41:31 364	Layer<3-4-2>: Download resource...
17:41:31 428	Layer<3-4-2>: Download kernel...
17:41:37 065	Layer<3-4-2>: RunProc is ending, ret=1
17:45:41 521	Layer<3-4-2>:测试设备开始
17:45:41 529	Layer<3-4-2>:测试设备成功
17:45:41 536	Layer<3-4-2>:校验芯片开始
17:45:41 541	Layer<3-4-2>:校验芯片成功
17:45:41 547	Layer<3-4-2>:获取FlashInfo开始
17:45:41 551	<LAYER 3-4-2> INFO:FlashInfo: 00 F0 D1 01 00 04 04 00 28 00 01
17:45:41 555	<LAYER 3-4-2> INFO:GetFlashInfo-->Emmc storage.
17:45:41 562	Layer<3-4-2>:获取FlashInfo成功
17:45:41 569	Layer<3-4-2>:准备IDB开始
17:45:41 573	<LAYER 3-4-2> INFO:CS(1)		(14910MB)		(SAMSUNG)
17:45:41 580	Layer<3-4-2>:准备IDB成功
17:45:41 587	Layer<3-4-2>:下载IDB开始
17:45:41 724	Layer<3-4-2>:下载IDB成功
17:45:41 728	Layer<3-4-2>:重启设备开始
17:45:42 733	Layer<3-4-2>:重启设备成功
17:45:42 738	Layer<3-4-2>:等待Loader开始
17:45:43 291	Layer<3-4-2>:等待Loader成功
17:45:43 296	Layer<3-4-2>:测试设备开始
17:45:43 303	Layer<3-4-2>:测试设备成功
17:45:43 310	Layer<3-4-2>: Download parameter...
17:45:43 367	Layer<3-4-2>: Download uboot...
17:45:43 903	Layer<3-4-2>: Download trust...
17:45:44 434	Layer<3-4-2>: Download resource...
17:45:44 493	Layer<3-4-2>: Download kernel...
17:45:48 816	Layer<3-4-2>: RunProc is ending, ret=1
17:51:04 633	Layer<3-4-2>:测试设备开始
17:51:04 642	Layer<3-4-2>:测试设备成功
17:51:04 648	Layer<3-4-2>:校验芯片开始
17:51:04 655	Layer<3-4-2>:校验芯片成功
17:51:04 665	Layer<3-4-2>:获取FlashInfo开始
17:51:04 669	<LAYER 3-4-2> INFO:FlashInfo: 00 F0 D1 01 00 04 04 00 28 00 01
17:51:04 676	<LAYER 3-4-2> INFO:GetFlashInfo-->Emmc storage.
17:51:04 684	Layer<3-4-2>:获取FlashInfo成功
17:51:04 688	Layer<3-4-2>:准备IDB开始
17:51:04 695	<LAYER 3-4-2> INFO:CS(1)		(14910MB)		(SAMSUNG)
17:51:04 704	Layer<3-4-2>:准备IDB成功
17:51:04 709	Layer<3-4-2>:下载IDB开始
17:51:04 843	Layer<3-4-2>:下载IDB成功
17:51:04 850	Layer<3-4-2>:重启设备开始
17:51:05 862	Layer<3-4-2>:重启设备成功
17:51:05 868	Layer<3-4-2>:等待Loader开始
17:51:06 441	Layer<3-4-2>:等待Loader成功
17:51:06 450	Layer<3-4-2>:测试设备开始
17:51:06 455	Layer<3-4-2>:测试设备成功
17:51:06 462	Layer<3-4-2>: Download parameter...
17:51:06 517	Layer<3-4-2>: Download uboot...
17:51:07 049	Layer<3-4-2>: Download trust...
17:51:07 571	Layer<3-4-2>: Download resource...
17:51:07 632	Layer<3-4-2>: Download kernel...
17:51:11 356	Layer<3-4-2>: RunProc is ending, ret=1
17:54:05 781	Layer<3-4-2>:测试设备开始
17:54:05 788	Layer<3-4-2>:测试设备成功
17:54:05 794	Layer<3-4-2>:校验芯片开始
17:54:05 799	Layer<3-4-2>:校验芯片成功
17:54:05 805	Layer<3-4-2>:获取FlashInfo开始
17:54:05 810	<LAYER 3-4-2> INFO:FlashInfo: 00 F0 D1 01 00 04 04 00 28 00 01
17:54:05 816	<LAYER 3-4-2> INFO:GetFlashInfo-->Emmc storage.
17:54:05 822	Layer<3-4-2>:获取FlashInfo成功
17:54:05 827	Layer<3-4-2>:准备IDB开始
17:54:05 833	<LAYER 3-4-2> INFO:CS(1)		(14910MB)		(SAMSUNG)
17:54:05 840	Layer<3-4-2>:准备IDB成功
17:54:05 843	Layer<3-4-2>:下载IDB开始
17:54:05 984	Layer<3-4-2>:下载IDB成功
17:54:05 988	Layer<3-4-2>:重启设备开始
17:54:06 995	Layer<3-4-2>:重启设备成功
17:54:07 000	Layer<3-4-2>:等待Loader开始
17:54:07 561	Layer<3-4-2>:等待Loader成功
17:54:07 568	Layer<3-4-2>:测试设备开始
17:54:07 575	Layer<3-4-2>:测试设备成功
17:54:07 589	Layer<3-4-2>: Download parameter...
17:54:07 653	Layer<3-4-2>: Download uboot...
17:54:08 185	Layer<3-4-2>: Download trust...
17:54:08 733	Layer<3-4-2>: Download resource...
17:54:08 790	Layer<3-4-2>: Download kernel...
17:54:14 155	Layer<3-4-2>: RunProc is ending, ret=1
17:54:48 562	Layer<3-4-2>:测试设备开始
17:54:48 569	Layer<3-4-2>:测试设备成功
17:54:48 574	Layer<3-4-2>:校验芯片开始
17:54:48 580	Layer<3-4-2>:校验芯片成功
17:54:48 586	Layer<3-4-2>:获取FlashInfo开始
17:54:48 591	<LAYER 3-4-2> INFO:FlashInfo: 00 F0 D1 01 00 04 04 00 28 00 01
17:54:48 598	<LAYER 3-4-2> INFO:GetFlashInfo-->Emmc storage.
17:54:48 607	Layer<3-4-2>:获取FlashInfo成功
17:54:48 620	Layer<3-4-2>:准备IDB开始
17:54:48 626	<LAYER 3-4-2> INFO:CS(1)		(14910MB)		(SAMSUNG)
17:54:48 637	Layer<3-4-2>:准备IDB成功
17:54:48 644	Layer<3-4-2>:下载IDB开始
17:54:48 784	Layer<3-4-2>:下载IDB成功
17:54:48 790	Layer<3-4-2>:重启设备开始
17:54:49 798	Layer<3-4-2>:重启设备成功
17:54:49 804	Layer<3-4-2>:等待Loader开始
17:54:50 403	Layer<3-4-2>:等待Loader成功
17:54:50 410	Layer<3-4-2>:测试设备开始
17:54:50 417	Layer<3-4-2>:测试设备成功
17:54:50 426	Layer<3-4-2>: Download parameter...
17:54:50 489	Layer<3-4-2>: Download uboot...
17:54:51 036	Layer<3-4-2>: Download trust...
17:54:51 578	Layer<3-4-2>: Download resource...
17:54:51 646	Layer<3-4-2>: Download kernel...
17:54:56 673	Layer<3-4-2>: RunProc is ending, ret=1
17:56:31 748	Layer<3-4-2>:测试设备开始
17:56:31 756	Layer<3-4-2>:测试设备成功
17:56:31 761	Layer<3-4-2>:校验芯片开始
17:56:31 768	Layer<3-4-2>:校验芯片成功
17:56:31 777	Layer<3-4-2>:获取FlashInfo开始
17:56:31 784	<LAYER 3-4-2> INFO:FlashInfo: 00 F0 D1 01 00 04 04 00 28 00 01
17:56:31 789	<LAYER 3-4-2> INFO:GetFlashInfo-->Emmc storage.
17:56:31 794	Layer<3-4-2>:获取FlashInfo成功
17:56:31 799	Layer<3-4-2>:准备IDB开始
17:56:31 805	<LAYER 3-4-2> INFO:CS(1)		(14910MB)		(SAMSUNG)
17:56:31 813	Layer<3-4-2>:准备IDB成功
17:56:31 818	Layer<3-4-2>:下载IDB开始
17:56:31 960	Layer<3-4-2>:下载IDB成功
17:56:31 965	Layer<3-4-2>:重启设备开始
17:56:32 972	Layer<3-4-2>:重启设备成功
17:56:32 984	Layer<3-4-2>:等待Loader开始
17:56:33 562	Layer<3-4-2>:等待Loader成功
17:56:33 568	Layer<3-4-2>:测试设备开始
17:56:33 574	Layer<3-4-2>:测试设备成功
17:56:33 582	Layer<3-4-2>: Download parameter...
17:56:33 641	Layer<3-4-2>: Download uboot...
17:56:34 169	Layer<3-4-2>: Download trust...
17:56:34 697	Layer<3-4-2>: Download resource...
17:56:34 756	Layer<3-4-2>: Download kernel...
17:56:37 159	Layer<3-4-2>: RunProc is ending, ret=1
18:07:19 146	Layer<3-4-2>:测试设备开始
18:07:19 153	Layer<3-4-2>:测试设备成功
18:07:19 158	Layer<3-4-2>:校验芯片开始
18:07:19 163	Layer<3-4-2>:校验芯片成功
18:07:19 169	Layer<3-4-2>:获取FlashInfo开始
18:07:19 174	<LAYER 3-4-2> INFO:FlashInfo: 00 F0 D1 01 00 04 04 00 28 00 01
18:07:19 179	<LAYER 3-4-2> INFO:GetFlashInfo-->Emmc storage.
18:07:19 186	Layer<3-4-2>:获取FlashInfo成功
18:07:19 191	Layer<3-4-2>:准备IDB开始
18:07:19 196	<LAYER 3-4-2> INFO:CS(1)		(14910MB)		(SAMSUNG)
18:07:19 206	Layer<3-4-2>:准备IDB成功
18:07:19 211	Layer<3-4-2>:下载IDB开始
18:07:19 349	Layer<3-4-2>:下载IDB成功
18:07:19 355	Layer<3-4-2>:重启设备开始
18:07:20 361	Layer<3-4-2>:重启设备成功
18:07:20 367	Layer<3-4-2>:等待Loader开始
18:07:20 887	Layer<3-4-2>:等待Loader成功
18:07:20 903	Layer<3-4-2>:测试设备开始
18:07:20 917	Layer<3-4-2>:测试设备成功
18:07:20 930	Layer<3-4-2>: Download parameter...
18:07:20 984	Layer<3-4-2>: Download uboot...
18:07:21 511	Layer<3-4-2>: Download trust...
18:07:22 050	Layer<3-4-2>: Download resource...
18:07:22 107	Layer<3-4-2>: Download kernel...
18:07:25 923	Layer<3-4-2>: RunProc is ending, ret=1
18:10:35 168	Info:RunExe->cmd=netstat -ano
18:10:37 414	ERROR:GetAdbSerialno->AdbCreateInterfaceByName failed,err=2,dev=\\?\USB#VID_2207&PID_0006#6&121961BC&0&2#{f72fe0d4-cbcb-407d-8814-9ed673d0dd6b}!
18:10:37 419	ERROR:AdbToRockusb->GetAdbSerialno failed!
18:10:37 422	Info:RunExe->cmd="\\192.168.1.186\rp-share\bill\3399\sdk-7.1\RKTools\windows\AndroidTool\AndroidTool_Release_v2.42\bin\adb.exe" reboot bootloader
18:12:03 349	Layer<3-4-2>:测试设备开始
18:12:03 355	Layer<3-4-2>:测试设备成功
18:12:03 360	Layer<3-4-2>:校验芯片开始
18:12:03 366	Layer<3-4-2>:校验芯片成功
18:12:03 370	Layer<3-4-2>:获取FlashInfo开始
18:12:03 375	<LAYER 3-4-2> INFO:FlashInfo: 00 F0 D1 01 00 04 04 00 28 00 01
18:12:03 389	<LAYER 3-4-2> INFO:GetFlashInfo-->Emmc storage.
18:12:03 394	Layer<3-4-2>:获取FlashInfo成功
18:12:03 399	Layer<3-4-2>:准备IDB开始
18:12:03 404	<LAYER 3-4-2> INFO:CS(1)		(14910MB)		(SAMSUNG)
18:12:03 413	Layer<3-4-2>:准备IDB成功
18:12:03 418	Layer<3-4-2>:下载IDB开始
18:12:03 559	Layer<3-4-2>:下载IDB成功
18:12:03 566	Layer<3-4-2>:重启设备开始
18:12:04 580	Layer<3-4-2>:重启设备成功
18:12:04 589	Layer<3-4-2>:等待Loader开始
18:12:05 142	Layer<3-4-2>:等待Loader成功
18:12:05 148	Layer<3-4-2>:测试设备开始
18:12:05 154	Layer<3-4-2>:测试设备成功
18:12:05 162	Layer<3-4-2>: Download parameter...
18:12:05 216	Layer<3-4-2>: Download uboot...
18:12:05 741	Layer<3-4-2>: Download trust...
18:12:06 269	Layer<3-4-2>: Download resource...
18:12:06 326	Layer<3-4-2>: Download kernel...
18:12:10 331	Layer<3-4-2>: RunProc is ending, ret=1
18:14:06 050	Layer<3-4-2>:测试设备开始
18:14:06 056	Layer<3-4-2>:测试设备成功
18:14:06 061	Layer<3-4-2>:校验芯片开始
18:14:06 066	Layer<3-4-2>:校验芯片成功
18:14:06 071	Layer<3-4-2>:获取FlashInfo开始
18:14:06 076	<LAYER 3-4-2> INFO:FlashInfo: 00 F0 D1 01 00 04 04 00 28 00 01
18:14:06 081	<LAYER 3-4-2> INFO:GetFlashInfo-->Emmc storage.
18:14:06 085	Layer<3-4-2>:获取FlashInfo成功
18:14:06 091	Layer<3-4-2>:准备IDB开始
18:14:06 095	<LAYER 3-4-2> INFO:CS(1)		(14910MB)		(SAMSUNG)
18:14:06 104	Layer<3-4-2>:准备IDB成功
18:14:06 109	Layer<3-4-2>:下载IDB开始
18:14:06 251	Layer<3-4-2>:下载IDB成功
18:14:06 257	Layer<3-4-2>:重启设备开始
18:14:07 263	Layer<3-4-2>:重启设备成功
18:14:07 270	Layer<3-4-2>:等待Loader开始
18:14:07 861	Layer<3-4-2>:等待Loader成功
18:14:07 867	Layer<3-4-2>:测试设备开始
18:14:07 874	Layer<3-4-2>:测试设备成功
18:14:07 882	Layer<3-4-2>: Download parameter...
18:14:07 933	Layer<3-4-2>: Download uboot...
18:14:08 452	Layer<3-4-2>: Download trust...
18:14:08 973	Layer<3-4-2>: Download resource...
18:14:09 028	Layer<3-4-2>: Download kernel...
18:14:15 586	Layer<3-4-2>: RunProc is ending, ret=1
18:15:47 893	Layer<3-4-2>:测试设备开始
18:15:47 898	Layer<3-4-2>:测试设备成功
18:15:47 902	Layer<3-4-2>:校验芯片开始
18:15:47 906	Layer<3-4-2>:校验芯片成功
18:15:47 909	Layer<3-4-2>:获取FlashInfo开始
18:15:47 913	<LAYER 3-4-2> INFO:FlashInfo: 00 F0 D1 01 00 04 04 00 28 00 01
18:15:47 916	<LAYER 3-4-2> INFO:GetFlashInfo-->Emmc storage.
18:15:47 920	Layer<3-4-2>:获取FlashInfo成功
18:15:47 925	Layer<3-4-2>:准备IDB开始
18:15:47 929	<LAYER 3-4-2> INFO:CS(1)		(14910MB)		(SAMSUNG)
18:15:47 936	Layer<3-4-2>:准备IDB成功
18:15:47 941	Layer<3-4-2>:下载IDB开始
18:15:48 075	Layer<3-4-2>:下载IDB成功
18:15:48 079	Layer<3-4-2>:重启设备开始
18:15:49 084	Layer<3-4-2>:重启设备成功
18:15:49 091	Layer<3-4-2>:等待Loader开始
18:15:49 628	Layer<3-4-2>:等待Loader成功
18:15:49 634	Layer<3-4-2>:测试设备开始
18:15:49 639	Layer<3-4-2>:测试设备成功
18:15:49 645	Layer<3-4-2>: Download parameter...
18:15:49 699	Layer<3-4-2>: Download uboot...
18:15:50 216	Layer<3-4-2>: Download trust...
18:15:50 740	Layer<3-4-2>: Download resource...
18:15:50 795	Layer<3-4-2>: Download kernel...
18:15:55 441	Layer<3-4-2>: RunProc is ending, ret=1
18:36:57 985	Layer<3-4-2>:测试设备开始
18:36:58 005	Layer<3-4-2>:测试设备成功
18:36:58 011	Layer<3-4-2>:校验芯片开始
18:36:58 016	Layer<3-4-2>:校验芯片成功
18:36:58 020	Layer<3-4-2>:获取FlashInfo开始
18:36:58 024	<LAYER 3-4-2> INFO:FlashInfo: 00 F0 D1 01 00 04 04 00 28 00 01
18:36:58 029	<LAYER 3-4-2> INFO:GetFlashInfo-->Emmc storage.
18:36:58 034	Layer<3-4-2>:获取FlashInfo成功
18:36:58 039	Layer<3-4-2>:准备IDB开始
18:36:58 044	<LAYER 3-4-2> INFO:CS(1)		(14910MB)		(SAMSUNG)
18:36:58 052	Layer<3-4-2>:准备IDB成功
18:36:58 058	Layer<3-4-2>:下载IDB开始
18:36:58 194	Layer<3-4-2>:下载IDB成功
18:36:58 200	Layer<3-4-2>:重启设备开始
18:36:59 205	Layer<3-4-2>:重启设备成功
18:36:59 212	Layer<3-4-2>:等待Loader开始
18:36:59 735	Layer<3-4-2>:等待Loader成功
18:36:59 739	Layer<3-4-2>:测试设备开始
18:36:59 744	Layer<3-4-2>:测试设备成功
18:36:59 800	Layer<3-4-2>: Download parameter...
18:36:59 907	Layer<3-4-2>: Download uboot...
18:37:00 751	Layer<3-4-2>: Download trust...
18:37:01 650	Layer<3-4-2>: Download resource...
18:37:01 704	Layer<3-4-2>: Download kernel...
18:37:06 645	Layer<3-4-2>: RunProc is ending, ret=1
18:54:46 039	Layer<3-4-2>:测试设备开始
18:54:46 053	Layer<3-4-2>:测试设备成功
18:54:46 064	Layer<3-4-2>:校验芯片开始
18:54:46 069	Layer<3-4-2>:校验芯片成功
18:54:46 073	Layer<3-4-2>:获取FlashInfo开始
18:54:46 076	<LAYER 3-4-2> INFO:FlashInfo: 00 F0 D1 01 00 04 04 00 28 00 01
18:54:46 080	<LAYER 3-4-2> INFO:GetFlashInfo-->Emmc storage.
18:54:46 085	Layer<3-4-2>:获取FlashInfo成功
18:54:46 090	Layer<3-4-2>:准备IDB开始
18:54:46 094	<LAYER 3-4-2> INFO:CS(1)		(14910MB)		(SAMSUNG)
18:54:46 103	Layer<3-4-2>:准备IDB成功
18:54:46 107	Layer<3-4-2>:下载IDB开始
18:54:46 247	Layer<3-4-2>:下载IDB成功
18:54:46 251	Layer<3-4-2>:重启设备开始
18:54:47 257	Layer<3-4-2>:重启设备成功
18:54:47 266	Layer<3-4-2>:等待Loader开始
18:54:47 817	Layer<3-4-2>:等待Loader成功
18:54:47 822	Layer<3-4-2>:测试设备开始
18:54:47 828	Layer<3-4-2>:测试设备成功
18:54:47 846	Layer<3-4-2>: Download parameter...
18:54:47 903	Layer<3-4-2>: Download uboot...
18:54:48 563	Layer<3-4-2>: Download trust...
18:54:49 291	Layer<3-4-2>: Download resource...
18:54:49 408	Layer<3-4-2>: Download kernel...
18:54:54 467	Layer<3-4-2>: RunProc is ending, ret=1
18:55:15 817	Layer<3-4-2>:测试设备开始
18:55:15 835	Layer<3-4-2>:测试设备成功
18:55:15 840	Layer<3-4-2>:校验芯片开始
18:55:15 846	Layer<3-4-2>:校验芯片成功
18:55:15 851	Layer<3-4-2>:获取FlashInfo开始
18:55:15 855	<LAYER 3-4-2> INFO:FlashInfo: 00 F0 D1 01 00 04 04 00 28 00 01
18:55:15 860	<LAYER 3-4-2> INFO:GetFlashInfo-->Emmc storage.
18:55:15 865	Layer<3-4-2>:获取FlashInfo成功
18:55:15 870	Layer<3-4-2>:准备IDB开始
18:55:15 874	<LAYER 3-4-2> INFO:CS(1)		(14910MB)		(SAMSUNG)
18:55:15 882	Layer<3-4-2>:准备IDB成功
18:55:15 888	Layer<3-4-2>:下载IDB开始
18:55:16 021	Layer<3-4-2>:下载IDB成功
18:55:16 027	Layer<3-4-2>:重启设备开始
18:55:17 033	Layer<3-4-2>:重启设备成功
18:55:17 038	Layer<3-4-2>:等待Loader开始
18:55:17 573	Layer<3-4-2>:等待Loader成功
18:55:17 577	Layer<3-4-2>:测试设备开始
18:55:17 581	Layer<3-4-2>:测试设备成功
18:55:17 587	Layer<3-4-2>: Download parameter...
18:55:17 639	Layer<3-4-2>: Download uboot...
18:55:18 158	Layer<3-4-2>: Download trust...
18:55:18 679	Layer<3-4-2>: Download resource...
18:55:18 732	Layer<3-4-2>: Download kernel...
18:55:24 003	Layer<3-4-2>: RunProc is ending, ret=1
19:00:01 351	Layer<3-4-2>:测试设备开始
19:00:01 357	Layer<3-4-2>:测试设备成功
19:00:01 360	Layer<3-4-2>:校验芯片开始
19:00:01 364	Layer<3-4-2>:校验芯片成功
19:00:01 369	Layer<3-4-2>:获取FlashInfo开始
19:00:01 372	<LAYER 3-4-2> INFO:FlashInfo: 00 F0 D1 01 00 04 04 00 28 00 01
19:00:01 375	<LAYER 3-4-2> INFO:GetFlashInfo-->Emmc storage.
19:00:01 380	Layer<3-4-2>:获取FlashInfo成功
19:00:01 385	Layer<3-4-2>:准备IDB开始
19:00:01 389	<LAYER 3-4-2> INFO:CS(1)		(14910MB)		(SAMSUNG)
19:00:01 396	Layer<3-4-2>:准备IDB成功
19:00:01 401	Layer<3-4-2>:下载IDB开始
19:00:01 535	Layer<3-4-2>:下载IDB成功
19:00:01 540	Layer<3-4-2>:重启设备开始
19:00:02 546	Layer<3-4-2>:重启设备成功
19:00:02 553	Layer<3-4-2>:等待Loader开始
19:00:03 042	Layer<3-4-2>:等待Loader成功
19:00:03 059	Layer<3-4-2>:测试设备开始
19:00:03 089	Layer<3-4-2>:测试设备成功
19:00:03 103	Layer<3-4-2>: Download parameter...
19:00:03 161	Layer<3-4-2>: Download uboot...
19:00:03 689	Layer<3-4-2>: Download trust...
19:00:04 208	Layer<3-4-2>: Download resource...
19:00:04 265	Layer<3-4-2>: Download kernel...
19:00:08 914	Layer<3-4-2>: RunProc is ending, ret=1
19:03:20 047	Layer<3-4-2>:测试设备开始
19:03:20 054	Layer<3-4-2>:测试设备成功
19:03:20 059	Layer<3-4-2>:校验芯片开始
19:03:20 065	Layer<3-4-2>:校验芯片成功
19:03:20 070	Layer<3-4-2>:获取FlashInfo开始
19:03:20 074	<LAYER 3-4-2> INFO:FlashInfo: 00 F0 D1 01 00 04 04 00 28 00 01
19:03:20 079	<LAYER 3-4-2> INFO:GetFlashInfo-->Emmc storage.
19:03:20 084	Layer<3-4-2>:获取FlashInfo成功
19:03:20 089	Layer<3-4-2>:准备IDB开始
19:03:20 093	<LAYER 3-4-2> INFO:CS(1)		(14910MB)		(SAMSUNG)
19:03:20 102	Layer<3-4-2>:准备IDB成功
19:03:20 107	Layer<3-4-2>:下载IDB开始
19:03:20 244	Layer<3-4-2>:下载IDB成功
19:03:20 248	Layer<3-4-2>:重启设备开始
19:03:21 252	Layer<3-4-2>:重启设备成功
19:03:21 258	Layer<3-4-2>:等待Loader开始
19:03:21 799	Layer<3-4-2>:等待Loader成功
19:03:21 804	Layer<3-4-2>:测试设备开始
19:03:21 808	Layer<3-4-2>:测试设备成功
19:03:21 813	Layer<3-4-2>: Download parameter...
19:03:21 864	Layer<3-4-2>: Download uboot...
19:03:22 648	Layer<3-4-2>: Download trust...
19:03:23 194	Layer<3-4-2>: Download resource...
19:03:23 247	Layer<3-4-2>: Download kernel...
19:03:25 942	Layer<3-4-2>: RunProc is ending, ret=1
19:05:09 783	Layer<3-4-2>:测试设备开始
19:05:09 791	Layer<3-4-2>:测试设备成功
19:05:09 795	Layer<3-4-2>:校验芯片开始
19:05:09 800	Layer<3-4-2>:校验芯片成功
19:05:09 804	Layer<3-4-2>:获取FlashInfo开始
19:05:09 809	<LAYER 3-4-2> INFO:FlashInfo: 00 F0 D1 01 00 04 04 00 28 00 01
19:05:09 813	<LAYER 3-4-2> INFO:GetFlashInfo-->Emmc storage.
19:05:09 817	Layer<3-4-2>:获取FlashInfo成功
19:05:09 823	Layer<3-4-2>:准备IDB开始
19:05:09 836	<LAYER 3-4-2> INFO:CS(1)		(14910MB)		(SAMSUNG)
19:05:09 844	Layer<3-4-2>:准备IDB成功
19:05:09 849	Layer<3-4-2>:下载IDB开始
19:05:09 985	Layer<3-4-2>:下载IDB成功
19:05:09 989	Layer<3-4-2>:重启设备开始
19:05:10 994	Layer<3-4-2>:重启设备成功
19:05:11 000	Layer<3-4-2>:等待Loader开始
19:05:11 539	Layer<3-4-2>:等待Loader成功
19:05:11 543	Layer<3-4-2>:测试设备开始
19:05:11 549	Layer<3-4-2>:测试设备成功
19:05:11 554	Layer<3-4-2>: Download parameter...
19:05:11 601	Layer<3-4-2>: Download uboot...
19:05:12 120	Layer<3-4-2>: Download trust...
19:05:12 734	Layer<3-4-2>: Download resource...
19:05:12 796	Layer<3-4-2>: Download kernel...
19:05:17 592	Layer<3-4-2>: RunProc is ending, ret=1
19:05:22 079	Layer<3-4-2>:测试设备开始
19:05:22 086	Layer<3-4-2>:测试设备成功
19:05:22 094	Layer<3-4-2>:校验芯片开始
19:05:22 100	Layer<3-4-2>:校验芯片成功
19:05:22 105	Layer<3-4-2>:获取FlashInfo开始
19:05:22 109	<LAYER 3-4-2> INFO:FlashInfo: 00 F0 D1 01 00 04 04 00 28 00 01
19:05:22 114	<LAYER 3-4-2> INFO:GetFlashInfo-->Emmc storage.
19:05:22 119	Layer<3-4-2>:获取FlashInfo成功
19:05:22 124	Layer<3-4-2>:准备IDB开始
19:05:22 128	<LAYER 3-4-2> INFO:CS(1)		(14910MB)		(SAMSUNG)
19:05:22 136	Layer<3-4-2>:准备IDB成功
19:05:22 140	Layer<3-4-2>:下载IDB开始
19:05:22 272	Layer<3-4-2>:下载IDB成功
19:05:22 279	Layer<3-4-2>:重启设备开始
19:05:23 284	Layer<3-4-2>:重启设备成功
19:05:23 292	Layer<3-4-2>:等待Loader开始
19:05:23 884	Layer<3-4-2>:等待Loader成功
19:05:23 888	Layer<3-4-2>:测试设备开始
19:05:23 892	Layer<3-4-2>:测试设备成功
19:05:23 897	Layer<3-4-2>: Download parameter...
19:05:23 948	Layer<3-4-2>: Download uboot...
19:05:24 237	Layer<3-4-2>: Download trust...
19:05:24 535	Layer<3-4-2>: Download resource...
19:05:24 568	Layer<3-4-2>: Download kernel...
19:05:28 245	Layer<3-4-2>: RunProc is ending, ret=1
19:06:30 503	Layer<3-4-2>:测试设备开始
19:06:31 755	Layer<3-4-2>:测试设备成功
19:06:31 759	Layer<3-4-2>:校验芯片开始
19:06:31 764	Layer<3-4-2>:校验芯片成功
19:06:31 768	Layer<3-4-2>:获取FlashInfo开始
19:06:31 773	<LAYER 3-4-2> INFO:FlashInfo: 00 F0 D1 01 00 04 04 00 28 00 01
19:06:31 777	<LAYER 3-4-2> INFO:GetFlashInfo-->Emmc storage.
19:06:31 783	Layer<3-4-2>:获取FlashInfo成功
19:06:31 788	Layer<3-4-2>:准备IDB开始
19:06:31 792	<LAYER 3-4-2> INFO:CS(1)		(14910MB)		(SAMSUNG)
19:06:31 800	Layer<3-4-2>:准备IDB成功
19:06:31 804	Layer<3-4-2>:下载IDB开始
19:06:31 946	Layer<3-4-2>:下载IDB成功
19:06:31 951	Layer<3-4-2>:重启设备开始
19:06:32 955	Layer<3-4-2>:重启设备成功
19:06:32 961	Layer<3-4-2>:等待Loader开始
19:06:33 502	Layer<3-4-2>:等待Loader成功
19:06:33 507	Layer<3-4-2>:测试设备开始
19:06:33 513	Layer<3-4-2>:测试设备成功
19:06:33 521	Layer<3-4-2>: Download parameter...
19:06:33 571	Layer<3-4-2>: Download uboot...
19:06:34 090	Layer<3-4-2>: Download trust...
19:06:34 604	Layer<3-4-2>: Download resource...
19:06:34 661	Layer<3-4-2>: Download kernel...
19:06:38 324	Layer<3-4-2>: RunProc is ending, ret=1
19:09:03 624	Layer<3-4-2>:测试设备开始
19:09:03 631	Layer<3-4-2>:测试设备成功
19:09:03 636	Layer<3-4-2>:校验芯片开始
19:09:03 641	Layer<3-4-2>:校验芯片成功
19:09:03 646	Layer<3-4-2>:获取FlashInfo开始
19:09:03 651	<LAYER 3-4-2> INFO:FlashInfo: 00 F0 D1 01 00 04 04 00 28 00 01
19:09:03 655	<LAYER 3-4-2> INFO:GetFlashInfo-->Emmc storage.
19:09:03 661	Layer<3-4-2>:获取FlashInfo成功
19:09:03 666	Layer<3-4-2>:准备IDB开始
19:09:03 669	<LAYER 3-4-2> INFO:CS(1)		(14910MB)		(SAMSUNG)
19:09:03 677	Layer<3-4-2>:准备IDB成功
19:09:03 681	Layer<3-4-2>:下载IDB开始
19:09:03 824	Layer<3-4-2>:下载IDB成功
19:09:03 828	Layer<3-4-2>:重启设备开始
19:09:04 833	Layer<3-4-2>:重启设备成功
19:09:04 839	Layer<3-4-2>:等待Loader开始
19:09:05 406	Layer<3-4-2>:等待Loader成功
19:09:05 410	Layer<3-4-2>:测试设备开始
19:09:05 414	Layer<3-4-2>:测试设备成功
19:09:05 420	Layer<3-4-2>: Download parameter...
19:09:05 472	Layer<3-4-2>: Download uboot...
19:09:05 998	Layer<3-4-2>: Download trust...
19:09:06 518	Layer<3-4-2>: Download resource...
19:09:06 572	Layer<3-4-2>: Download kernel...
19:09:10 226	Layer<3-4-2>: RunProc is ending, ret=1
19:12:25 815	Layer<3-4-2>:测试设备开始
19:12:25 820	Layer<3-4-2>:测试设备成功
19:12:25 825	Layer<3-4-2>:校验芯片开始
19:12:25 830	Layer<3-4-2>:校验芯片成功
19:12:25 836	Layer<3-4-2>:获取FlashInfo开始
19:12:25 840	<LAYER 3-4-2> INFO:FlashInfo: 00 F0 D1 01 00 04 04 00 28 00 01
19:12:25 844	<LAYER 3-4-2> INFO:GetFlashInfo-->Emmc storage.
19:12:25 849	Layer<3-4-2>:获取FlashInfo成功
19:12:25 854	Layer<3-4-2>:准备IDB开始
19:12:25 858	<LAYER 3-4-2> INFO:CS(1)		(14910MB)		(SAMSUNG)
19:12:25 866	Layer<3-4-2>:准备IDB成功
19:12:25 871	Layer<3-4-2>:下载IDB开始
19:12:26 008	Layer<3-4-2>:下载IDB成功
19:12:26 013	Layer<3-4-2>:重启设备开始
19:12:27 018	Layer<3-4-2>:重启设备成功
19:12:27 024	Layer<3-4-2>:等待Loader开始
19:12:27 577	Layer<3-4-2>:等待Loader成功
19:12:27 584	Layer<3-4-2>:测试设备开始
19:12:27 592	Layer<3-4-2>:测试设备成功
19:12:27 603	Layer<3-4-2>: Download parameter...
19:12:27 658	Layer<3-4-2>: Download uboot...
19:12:28 175	Layer<3-4-2>: Download trust...
19:12:28 708	Layer<3-4-2>: Download resource...
19:12:28 814	Layer<3-4-2>: Download kernel...
19:12:35 394	Layer<3-4-2>: RunProc is ending, ret=1
19:14:31 851	Layer<3-4-2>:测试设备开始
19:14:31 858	Layer<3-4-2>:测试设备成功
19:14:31 862	Layer<3-4-2>:校验芯片开始
19:14:31 868	Layer<3-4-2>:校验芯片成功
19:14:31 873	Layer<3-4-2>:获取FlashInfo开始
19:14:31 877	<LAYER 3-4-2> INFO:FlashInfo: 00 F0 D1 01 00 04 04 00 28 00 01
19:14:31 882	<LAYER 3-4-2> INFO:GetFlashInfo-->Emmc storage.
19:14:31 887	Layer<3-4-2>:获取FlashInfo成功
19:14:31 891	Layer<3-4-2>:准备IDB开始
19:14:31 895	<LAYER 3-4-2> INFO:CS(1)		(14910MB)		(SAMSUNG)
19:14:31 902	Layer<3-4-2>:准备IDB成功
19:14:31 906	Layer<3-4-2>:下载IDB开始
19:14:32 038	Layer<3-4-2>:下载IDB成功
19:14:32 042	Layer<3-4-2>:重启设备开始
19:14:33 046	Layer<3-4-2>:重启设备成功
19:14:33 052	Layer<3-4-2>:等待Loader开始
19:14:33 585	Layer<3-4-2>:等待Loader成功
19:14:33 589	Layer<3-4-2>:测试设备开始
19:14:33 594	Layer<3-4-2>:测试设备成功
19:14:33 601	Layer<3-4-2>: Download parameter...
19:14:33 652	Layer<3-4-2>: Download uboot...
19:14:34 172	Layer<3-4-2>: Download trust...
19:14:34 689	Layer<3-4-2>: Download resource...
19:14:34 743	Layer<3-4-2>: Download kernel...
19:14:40 673	Layer<3-4-2>: RunProc is ending, ret=1
19:15:25 809	Layer<3-4-2>:测试设备开始
19:15:25 816	Layer<3-4-2>:测试设备成功
19:15:25 821	Layer<3-4-2>:校验芯片开始
19:15:25 827	Layer<3-4-2>:校验芯片成功
19:15:25 832	Layer<3-4-2>:获取FlashInfo开始
19:15:25 836	<LAYER 3-4-2> INFO:FlashInfo: 00 F0 D1 01 00 04 04 00 28 00 01
19:15:25 841	<LAYER 3-4-2> INFO:GetFlashInfo-->Emmc storage.
19:15:25 846	Layer<3-4-2>:获取FlashInfo成功
19:15:25 851	Layer<3-4-2>:准备IDB开始
19:15:25 855	<LAYER 3-4-2> INFO:CS(1)		(14910MB)		(SAMSUNG)
19:15:25 864	Layer<3-4-2>:准备IDB成功
19:15:25 869	Layer<3-4-2>:下载IDB开始
19:15:26 006	Layer<3-4-2>:下载IDB成功
19:15:26 012	Layer<3-4-2>:重启设备开始
19:15:27 018	Layer<3-4-2>:重启设备成功
19:15:27 024	Layer<3-4-2>:等待Loader开始
19:15:27 591	Layer<3-4-2>:等待Loader成功
19:15:27 597	Layer<3-4-2>:测试设备开始
19:15:27 604	Layer<3-4-2>:测试设备成功
19:15:27 612	Layer<3-4-2>: Download parameter...
19:15:27 661	Layer<3-4-2>: Download uboot...
19:15:28 188	Layer<3-4-2>: Download trust...
19:15:28 720	Layer<3-4-2>: Download resource...
19:15:28 775	Layer<3-4-2>: Download kernel...
19:15:34 228	Layer<3-4-2>: RunProc is ending, ret=1
19:16:47 255	Layer<3-4-2>:测试设备开始
19:16:47 262	Layer<3-4-2>:测试设备成功
19:16:47 271	Layer<3-4-2>:校验芯片开始
19:16:47 277	Layer<3-4-2>:校验芯片成功
19:16:47 282	Layer<3-4-2>:获取FlashInfo开始
19:16:47 287	<LAYER 3-4-2> INFO:FlashInfo: 00 F0 D1 01 00 04 04 00 28 00 01
19:16:47 292	<LAYER 3-4-2> INFO:GetFlashInfo-->Emmc storage.
19:16:47 296	Layer<3-4-2>:获取FlashInfo成功
19:16:47 299	Layer<3-4-2>:准备IDB开始
19:16:47 302	<LAYER 3-4-2> INFO:CS(1)		(14910MB)		(SAMSUNG)
19:16:47 310	Layer<3-4-2>:准备IDB成功
19:16:47 314	Layer<3-4-2>:下载IDB开始
19:16:47 447	Layer<3-4-2>:下载IDB成功
19:16:47 451	Layer<3-4-2>:重启设备开始
19:16:48 459	Layer<3-4-2>:重启设备成功
19:16:48 471	Layer<3-4-2>:等待Loader开始
19:16:49 001	Layer<3-4-2>:等待Loader成功
19:16:49 009	Layer<3-4-2>:测试设备开始
19:16:49 016	Layer<3-4-2>:测试设备成功
19:16:49 024	Layer<3-4-2>: Download parameter...
19:16:49 075	Layer<3-4-2>: Download uboot...
19:16:49 597	Layer<3-4-2>: Download trust...
19:16:50 114	Layer<3-4-2>: Download resource...
19:16:50 170	Layer<3-4-2>: Download kernel...
19:16:54 459	Layer<3-4-2>: RunProc is ending, ret=1
19:18:13 988	Layer<3-4-2>:测试设备开始
19:18:13 995	Layer<3-4-2>:测试设备成功
19:18:14 000	Layer<3-4-2>:校验芯片开始
19:18:14 005	Layer<3-4-2>:校验芯片成功
19:18:14 012	Layer<3-4-2>:获取FlashInfo开始
19:18:14 016	<LAYER 3-4-2> INFO:FlashInfo: 00 F0 D1 01 00 04 04 00 28 00 01
19:18:14 020	<LAYER 3-4-2> INFO:GetFlashInfo-->Emmc storage.
19:18:14 027	Layer<3-4-2>:获取FlashInfo成功
19:18:14 032	Layer<3-4-2>:准备IDB开始
19:18:14 036	<LAYER 3-4-2> INFO:CS(1)		(14910MB)		(SAMSUNG)
19:18:14 045	Layer<3-4-2>:准备IDB成功
19:18:14 050	Layer<3-4-2>:下载IDB开始
19:18:14 188	Layer<3-4-2>:下载IDB成功
19:18:14 194	Layer<3-4-2>:重启设备开始
19:18:15 200	Layer<3-4-2>:重启设备成功
19:18:15 208	Layer<3-4-2>:等待Loader开始
19:18:15 744	Layer<3-4-2>:等待Loader成功
19:18:15 755	Layer<3-4-2>:测试设备开始
19:18:15 762	Layer<3-4-2>:测试设备成功
19:18:15 770	Layer<3-4-2>: Download parameter...
19:18:15 820	Layer<3-4-2>: Download uboot...
19:18:16 343	Layer<3-4-2>: Download trust...
19:18:16 864	Layer<3-4-2>: Download resource...
19:18:16 921	Layer<3-4-2>: Download kernel...
19:18:22 193	Layer<3-4-2>: RunProc is ending, ret=1
19:24:38 166	Layer<3-4-2>:测试设备开始
19:24:38 175	Layer<3-4-2>:测试设备成功
19:24:38 180	Layer<3-4-2>:校验芯片开始
19:24:38 185	Layer<3-4-2>:校验芯片成功
19:24:38 190	Layer<3-4-2>:获取FlashInfo开始
19:24:38 193	<LAYER 3-4-2> INFO:FlashInfo: 00 F0 D1 01 00 04 04 00 28 00 01
19:24:38 197	<LAYER 3-4-2> INFO:GetFlashInfo-->Emmc storage.
19:24:38 201	Layer<3-4-2>:获取FlashInfo成功
19:24:38 205	Layer<3-4-2>:准备IDB开始
19:24:38 208	<LAYER 3-4-2> INFO:CS(1)		(14910MB)		(SAMSUNG)
19:24:38 216	Layer<3-4-2>:准备IDB成功
19:24:38 223	Layer<3-4-2>:下载IDB开始
19:24:38 369	Layer<3-4-2>:下载IDB成功
19:24:38 377	Layer<3-4-2>:重启设备开始
19:24:39 383	Layer<3-4-2>:重启设备成功
19:24:39 391	Layer<3-4-2>:等待Loader开始
19:24:39 944	Layer<3-4-2>:等待Loader成功
19:24:39 950	Layer<3-4-2>:测试设备开始
19:24:39 955	Layer<3-4-2>:测试设备成功
19:24:39 962	Layer<3-4-2>: Download parameter...
19:24:40 016	Layer<3-4-2>: Download uboot...
19:24:40 535	Layer<3-4-2>: Download trust...
19:24:41 060	Layer<3-4-2>: Download resource...
19:24:41 117	Layer<3-4-2>: Download kernel...
19:24:45 750	Layer<3-4-2>: RunProc is ending, ret=1
19:25:58 427	Layer<3-4-2>:测试设备开始
19:25:58 435	Layer<3-4-2>:测试设备成功
19:25:58 440	Layer<3-4-2>:校验芯片开始
19:25:58 444	Layer<3-4-2>:校验芯片成功
19:25:58 449	Layer<3-4-2>:获取FlashInfo开始
19:25:58 454	<LAYER 3-4-2> INFO:FlashInfo: 00 F0 D1 01 00 04 04 00 28 00 01
19:25:58 458	<LAYER 3-4-2> INFO:GetFlashInfo-->Emmc storage.
19:25:58 464	Layer<3-4-2>:获取FlashInfo成功
19:25:58 469	Layer<3-4-2>:准备IDB开始
19:25:58 474	<LAYER 3-4-2> INFO:CS(1)		(14910MB)		(SAMSUNG)
19:25:58 483	Layer<3-4-2>:准备IDB成功
19:25:58 488	Layer<3-4-2>:下载IDB开始
19:25:58 637	Layer<3-4-2>:下载IDB成功
19:25:58 642	Layer<3-4-2>:重启设备开始
19:25:59 648	Layer<3-4-2>:重启设备成功
19:25:59 656	Layer<3-4-2>:等待Loader开始
19:26:00 177	Layer<3-4-2>:等待Loader成功
19:26:00 183	Layer<3-4-2>:测试设备开始
19:26:00 189	Layer<3-4-2>:测试设备成功
19:26:00 197	Layer<3-4-2>: Download parameter...
19:26:00 248	Layer<3-4-2>: Download uboot...
19:26:00 770	Layer<3-4-2>: Download trust...
19:26:01 293	Layer<3-4-2>: Download resource...
19:26:01 350	Layer<3-4-2>: Download kernel...
19:26:06 618	Layer<3-4-2>: RunProc is ending, ret=1
19:37:57 079	Layer<3-4-2>:测试设备开始
19:37:57 087	Layer<3-4-2>:测试设备成功
19:37:57 094	Layer<3-4-2>:校验芯片开始
19:37:57 098	Layer<3-4-2>:校验芯片成功
19:37:57 101	Layer<3-4-2>:获取FlashInfo开始
19:37:57 104	<LAYER 3-4-2> INFO:FlashInfo: 00 F0 D1 01 00 04 04 00 28 00 01
19:37:57 108	<LAYER 3-4-2> INFO:GetFlashInfo-->Emmc storage.
19:37:57 119	Layer<3-4-2>:获取FlashInfo成功
19:37:57 122	Layer<3-4-2>:准备IDB开始
19:37:57 126	<LAYER 3-4-2> INFO:CS(1)		(14910MB)		(SAMSUNG)
19:37:57 134	Layer<3-4-2>:准备IDB成功
19:37:57 138	Layer<3-4-2>:下载IDB开始
19:37:57 270	Layer<3-4-2>:下载IDB成功
19:37:57 276	Layer<3-4-2>:重启设备开始
19:37:58 282	Layer<3-4-2>:重启设备成功
19:37:58 288	Layer<3-4-2>:等待Loader开始
19:37:58 832	Layer<3-4-2>:等待Loader成功
19:37:58 838	Layer<3-4-2>:测试设备开始
19:37:58 844	Layer<3-4-2>:测试设备成功
19:37:58 852	Layer<3-4-2>: Download parameter...
19:37:58 909	Layer<3-4-2>: Download uboot...
19:37:59 435	Layer<3-4-2>: Download trust...
19:37:59 959	Layer<3-4-2>: Download resource...
19:38:00 022	Layer<3-4-2>: Download kernel...
19:38:04 324	Layer<3-4-2>: RunProc is ending, ret=1
19:39:43 118	Layer<3-4-2>:测试设备开始
19:39:43 127	Layer<3-4-2>:测试设备成功
19:39:43 133	Layer<3-4-2>:校验芯片开始
19:39:43 138	Layer<3-4-2>:校验芯片成功
19:39:43 144	Layer<3-4-2>:获取FlashInfo开始
19:39:43 148	<LAYER 3-4-2> INFO:FlashInfo: 00 F0 D1 01 00 04 04 00 28 00 01
19:39:43 152	<LAYER 3-4-2> INFO:GetFlashInfo-->Emmc storage.
19:39:43 158	Layer<3-4-2>:获取FlashInfo成功
19:39:43 163	Layer<3-4-2>:准备IDB开始
19:39:43 168	<LAYER 3-4-2> INFO:CS(1)		(14910MB)		(SAMSUNG)
19:39:43 176	Layer<3-4-2>:准备IDB成功
19:39:43 181	Layer<3-4-2>:下载IDB开始
19:39:43 314	Layer<3-4-2>:下载IDB成功
19:39:43 320	Layer<3-4-2>:重启设备开始
19:39:44 326	Layer<3-4-2>:重启设备成功
19:39:44 332	Layer<3-4-2>:等待Loader开始
19:39:44 865	Layer<3-4-2>:等待Loader成功
19:39:44 871	Layer<3-4-2>:测试设备开始
19:39:44 878	Layer<3-4-2>:测试设备成功
19:39:44 885	Layer<3-4-2>: Download parameter...
19:39:44 941	Layer<3-4-2>: Download uboot...
19:39:45 461	Layer<3-4-2>: Download trust...
19:39:45 997	Layer<3-4-2>: Download resource...
19:39:46 053	Layer<3-4-2>: Download kernel...
19:39:51 015	Layer<3-4-2>: RunProc is ending, ret=1
19:46:09 720	Layer<3-4-2>:测试设备开始
19:46:09 725	Layer<3-4-2>:测试设备成功
19:46:09 731	Layer<3-4-2>:校验芯片开始
19:46:09 736	Layer<3-4-2>:校验芯片成功
19:46:09 740	Layer<3-4-2>:获取FlashInfo开始
19:46:09 743	<LAYER 3-4-2> INFO:FlashInfo: 00 F0 D1 01 00 04 04 00 28 00 01
19:46:09 746	<LAYER 3-4-2> INFO:GetFlashInfo-->Emmc storage.
19:46:09 751	Layer<3-4-2>:获取FlashInfo成功
19:46:09 755	Layer<3-4-2>:准备IDB开始
19:46:09 760	<LAYER 3-4-2> INFO:CS(1)		(14910MB)		(SAMSUNG)
19:46:09 767	Layer<3-4-2>:准备IDB成功
19:46:09 770	Layer<3-4-2>:下载IDB开始
19:46:09 913	Layer<3-4-2>:下载IDB成功
19:46:09 919	Layer<3-4-2>:重启设备开始
19:46:10 924	Layer<3-4-2>:重启设备成功
19:46:10 931	Layer<3-4-2>:等待Loader开始
19:46:11 462	Layer<3-4-2>:等待Loader成功
19:46:11 468	Layer<3-4-2>:测试设备开始
19:46:11 475	Layer<3-4-2>:测试设备成功
19:46:11 484	Layer<3-4-2>: Download parameter...
19:46:11 534	Layer<3-4-2>: Download uboot...
19:46:12 052	Layer<3-4-2>: Download trust...
19:46:12 574	Layer<3-4-2>: Download resource...
19:46:12 632	Layer<3-4-2>: Download kernel...
19:46:18 225	Layer<3-4-2>: RunProc is ending, ret=1
19:48:12 183	Layer<3-4-2>:测试设备开始
19:48:12 196	Layer<3-4-2>:测试设备成功
19:48:12 202	Layer<3-4-2>:校验芯片开始
19:48:12 207	Layer<3-4-2>:校验芯片成功
19:48:12 212	Layer<3-4-2>:获取FlashInfo开始
19:48:12 216	<LAYER 3-4-2> INFO:FlashInfo: 00 F0 D1 01 00 04 04 00 28 00 01
19:48:12 220	<LAYER 3-4-2> INFO:GetFlashInfo-->Emmc storage.
19:48:12 225	Layer<3-4-2>:获取FlashInfo成功
19:48:12 230	Layer<3-4-2>:准备IDB开始
19:48:12 236	<LAYER 3-4-2> INFO:CS(1)		(14910MB)		(SAMSUNG)
19:48:12 244	Layer<3-4-2>:准备IDB成功
19:48:12 248	Layer<3-4-2>:下载IDB开始
19:48:12 386	Layer<3-4-2>:下载IDB成功
19:48:12 392	Layer<3-4-2>:重启设备开始
19:48:13 407	Layer<3-4-2>:重启设备成功
19:48:13 416	Layer<3-4-2>:等待Loader开始
19:48:13 951	Layer<3-4-2>:等待Loader成功
19:48:13 957	Layer<3-4-2>:测试设备开始
19:48:13 963	Layer<3-4-2>:测试设备成功
19:48:13 971	Layer<3-4-2>: Download parameter...
19:48:14 021	Layer<3-4-2>: Download uboot...
19:48:14 539	Layer<3-4-2>: Download trust...
19:48:15 065	Layer<3-4-2>: Download resource...
19:48:15 122	Layer<3-4-2>: Download kernel...
19:48:20 401	Layer<3-4-2>: RunProc is ending, ret=1
19:57:00 018	Layer<3-4-2>:测试设备开始
19:57:00 034	Layer<3-4-2>:测试设备成功
19:57:00 038	Layer<3-4-2>:校验芯片开始
19:57:00 042	Layer<3-4-2>:校验芯片成功
19:57:00 046	Layer<3-4-2>:获取FlashInfo开始
19:57:00 049	<LAYER 3-4-2> INFO:FlashInfo: 00 F0 D1 01 00 04 04 00 28 00 01
19:57:00 052	<LAYER 3-4-2> INFO:GetFlashInfo-->Emmc storage.
19:57:00 056	Layer<3-4-2>:获取FlashInfo成功
19:57:00 069	Layer<3-4-2>:准备IDB开始
19:57:00 074	<LAYER 3-4-2> INFO:CS(1)		(14910MB)		(SAMSUNG)
19:57:00 085	Layer<3-4-2>:准备IDB成功
19:57:00 091	Layer<3-4-2>:下载IDB开始
19:57:00 225	Layer<3-4-2>:下载IDB成功
19:57:00 231	Layer<3-4-2>:重启设备开始
19:57:01 237	Layer<3-4-2>:重启设备成功
19:57:01 245	Layer<3-4-2>:等待Loader开始
19:57:01 805	Layer<3-4-2>:等待Loader成功
19:57:01 811	Layer<3-4-2>:测试设备开始
19:57:01 817	Layer<3-4-2>:测试设备成功
19:57:01 826	Layer<3-4-2>: Download parameter...
19:57:01 879	Layer<3-4-2>: Download uboot...
19:57:02 420	Layer<3-4-2>: Download trust...
19:57:02 961	Layer<3-4-2>: Download resource...
19:57:03 017	Layer<3-4-2>: Download kernel...
19:57:06 813	Layer<3-4-2>: RunProc is ending, ret=1
19:58:46 937	Layer<3-4-2>:测试设备开始
19:58:46 952	Layer<3-4-2>:测试设备成功
19:58:46 958	Layer<3-4-2>:校验芯片开始
19:58:46 963	Layer<3-4-2>:校验芯片成功
19:58:46 968	Layer<3-4-2>:获取FlashInfo开始
19:58:46 972	<LAYER 3-4-2> INFO:FlashInfo: 00 F0 D1 01 00 04 04 00 28 00 01
19:58:46 977	<LAYER 3-4-2> INFO:GetFlashInfo-->Emmc storage.
19:58:46 982	Layer<3-4-2>:获取FlashInfo成功
19:58:46 987	Layer<3-4-2>:准备IDB开始
19:58:46 992	<LAYER 3-4-2> INFO:CS(1)		(14910MB)		(SAMSUNG)
19:58:47 000	Layer<3-4-2>:准备IDB成功
19:58:47 006	Layer<3-4-2>:下载IDB开始
19:58:47 139	Layer<3-4-2>:下载IDB成功
19:58:47 154	Layer<3-4-2>:重启设备开始
19:58:48 160	Layer<3-4-2>:重启设备成功
19:58:48 166	Layer<3-4-2>:等待Loader开始
19:58:48 725	Layer<3-4-2>:等待Loader成功
19:58:48 731	Layer<3-4-2>:测试设备开始
19:58:48 738	Layer<3-4-2>:测试设备成功
19:58:48 747	Layer<3-4-2>: Download parameter...
19:58:48 796	Layer<3-4-2>: Download uboot...
19:58:49 320	Layer<3-4-2>: Download trust...
19:58:49 856	Layer<3-4-2>: Download resource...
19:58:49 913	Layer<3-4-2>: Download kernel...
19:58:53 902	Layer<3-4-2>: RunProc is ending, ret=1
20:16:16 411	Layer<3-4-2>:测试设备开始
20:16:16 418	Layer<3-4-2>:测试设备成功
20:16:16 423	Layer<3-4-2>:校验芯片开始
20:16:16 427	Layer<3-4-2>:校验芯片成功
20:16:16 431	Layer<3-4-2>:获取FlashInfo开始
20:16:16 435	<LAYER 3-4-2> INFO:FlashInfo: 00 F0 D1 01 00 04 04 00 28 00 01
20:16:16 439	<LAYER 3-4-2> INFO:GetFlashInfo-->Emmc storage.
20:16:16 443	Layer<3-4-2>:获取FlashInfo成功
20:16:16 448	Layer<3-4-2>:准备IDB开始
20:16:16 453	<LAYER 3-4-2> INFO:CS(1)		(14910MB)		(SAMSUNG)
20:16:16 462	Layer<3-4-2>:准备IDB成功
20:16:16 468	Layer<3-4-2>:下载IDB开始
20:16:16 602	Layer<3-4-2>:下载IDB成功
20:16:16 608	Layer<3-4-2>:重启设备开始
20:16:17 614	Layer<3-4-2>:重启设备成功
20:16:17 621	Layer<3-4-2>:等待Loader开始
20:16:18 150	Layer<3-4-2>:等待Loader成功
20:16:18 156	Layer<3-4-2>:测试设备开始
20:16:18 162	Layer<3-4-2>:测试设备成功
20:16:18 170	Layer<3-4-2>: Download parameter...
20:16:18 222	Layer<3-4-2>: Download uboot...
20:16:18 754	Layer<3-4-2>: Download trust...
20:16:19 308	Layer<3-4-2>: Download resource...
20:16:19 366	Layer<3-4-2>: Download kernel...
20:16:23 820	Layer<3-4-2>: RunProc is ending, ret=1
20:19:11 366	Layer<3-4-2>:测试设备开始
20:19:11 373	Layer<3-4-2>:测试设备成功
20:19:11 378	Layer<3-4-2>:校验芯片开始
20:19:11 383	Layer<3-4-2>:校验芯片成功
20:19:11 388	Layer<3-4-2>:获取FlashInfo开始
20:19:11 393	<LAYER 3-4-2> INFO:FlashInfo: 00 F0 D1 01 00 04 04 00 28 00 01
20:19:11 397	<LAYER 3-4-2> INFO:GetFlashInfo-->Emmc storage.
20:19:11 403	Layer<3-4-2>:获取FlashInfo成功
20:19:11 408	Layer<3-4-2>:准备IDB开始
20:19:11 412	<LAYER 3-4-2> INFO:CS(1)		(14910MB)		(SAMSUNG)
20:19:11 421	Layer<3-4-2>:准备IDB成功
20:19:11 427	Layer<3-4-2>:下载IDB开始
20:19:11 565	Layer<3-4-2>:下载IDB成功
20:19:11 571	Layer<3-4-2>:重启设备开始
20:19:12 576	Layer<3-4-2>:重启设备成功
20:19:12 582	Layer<3-4-2>:等待Loader开始
20:19:13 112	Layer<3-4-2>:等待Loader成功
20:19:13 117	Layer<3-4-2>:测试设备开始
20:19:13 123	Layer<3-4-2>:测试设备成功
20:19:13 130	Layer<3-4-2>: Download parameter...
20:19:13 179	Layer<3-4-2>: Download uboot...
20:19:13 704	Layer<3-4-2>: Download trust...
20:19:14 229	Layer<3-4-2>: Download resource...
20:19:14 286	Layer<3-4-2>: Download kernel...
20:19:18 642	Layer<3-4-2>: RunProc is ending, ret=1
