16:46:53 021	Error:EnumerateHubPorts-->DeviceIoControl failed,err=0x48f
16:46:58 026	Error:EnumerateHubPorts-->CreateFile failed,err=0x2
16:46:58 318	Error:EnumerateHubPorts-->CreateFile failed,err=0x2
16:46:58 546	Error:EnumerateHubPorts-->CreateFile failed,err=0x2
16:46:58 772	Error:EnumerateHubPorts-->CreateFile failed,err=0x2
16:46:59 017	Error:EnumerateHubPorts-->CreateFile failed,err=0x2
16:46:59 766	Error:EnumerateHubPorts-->CreateFile failed,err=0x2
16:47:08 481	Error:EnumerateHubPorts-->CreateFile failed,err=0x2
16:47:08 713	Error:EnumerateHubPorts-->CreateFile failed,err=0x2
16:47:09 205	Error:EnumerateHubPorts-->CreateFile failed,err=0x2
16:47:09 427	Error:EnumerateHubPorts-->CreateFile failed,err=0x2
16:47:09 647	Error:EnumerateHubPorts-->CreateFile failed,err=0x2
16:47:09 866	Error:EnumerateHubPorts-->CreateFile failed,err=0x2
16:49:14 931	Error:EnumerateHubPorts-->DeviceIoControl failed,err=0x48f
16:49:19 186	Error:EnumerateHubPorts-->DeviceIoControl failed,err=0x48f
16:56:17 522	ERROR:Search_ADB-->CM_Get_Sibling failed(0xd)
16:56:22 748	ERROR:Search_ADB-->CM_Get_Sibling failed(0xd)
16:59:19 756	Error:EnumerateHubPorts-->DeviceIoControl failed,err=0x48f
17:00:36 432	ERROR:Search_ADB-->CM_Get_Sibling failed(0xd)
17:00:41 625	ERROR:Search_ADB-->CM_Get_Sibling failed(0xd)
17:01:13 361	Error:EnumerateHubPorts-->DeviceIoControl failed,err=0x48f
17:01:13 597	ERROR:Search_ADB-->CM_Get_Sibling failed(0xd)
17:01:18 778	ERROR:Search_ADB-->CM_Get_Sibling failed(0xd)
17:06:00 205	Error:EnumerateHubPorts-->DeviceIoControl failed,err=0x48f
17:06:41 854	Error:EnumerateHubPorts-->DeviceIoControl failed,err=0x48f
17:06:47 213	ERROR:Search_ADB-->CM_Get_Sibling failed(0xd)
17:11:23 207	Error:EnumerateHubPorts-->DeviceIoControl failed,err=0x48f
17:11:28 457	ERROR:Search_ADB-->CM_Get_Sibling failed(0xd)
17:13:44 334	Error:EnumerateHubPorts-->DeviceIoControl failed,err=0x48f
17:13:49 664	ERROR:Search_ADB-->CM_Get_Sibling failed(0xd)
17:14:15 215	ERROR:Search_ADB-->CM_Get_Sibling failed(0xd)
17:14:20 407	ERROR:Search_ADB-->CM_Get_Sibling failed(0xd)
17:14:31 485	ERROR:Search_ADB-->CM_Get_Sibling failed(0xd)
17:14:36 744	ERROR:Search_ADB-->CM_Get_Sibling failed(0xd)
17:14:49 296	Error:EnumerateHubPorts-->DeviceIoControl failed,err=0x48f
17:14:49 540	ERROR:Search_ADB-->CM_Get_Sibling failed(0xd)
17:14:54 717	ERROR:Search_ADB-->CM_Get_Sibling failed(0xd)
17:17:57 559	ERROR:Search_ADB-->CM_Get_Sibling failed(0xd)
17:18:02 811	ERROR:Search_ADB-->CM_Get_Sibling failed(0xd)
17:18:53 240	ERROR:Search_ADB-->CM_Get_Sibling failed(0xd)
17:18:58 431	Error:EnumerateHubPorts-->DeviceIoControl failed,err=0x48f
17:19:49 057	ERROR:Search_ADB-->CM_Get_Sibling failed(0xd)
17:19:54 273	ERROR:Search_ADB-->CM_Get_Sibling failed(0xd)
17:21:17 859	ERROR:Search_ADB-->CM_Get_Sibling failed(0xd)
17:21:22 976	ERROR:Search_ADB-->CM_Get_Sibling failed(0xd)
17:24:42 856	Error:EnumerateHubPorts-->DeviceIoControl failed,err=0x48f
17:24:48 274	ERROR:Search_ADB-->CM_Get_Sibling failed(0xd)
17:26:59 896	ERROR:Search_ADB-->CM_Get_Sibling failed(0xd)
17:27:05 219	ERROR:Search_ADB-->CM_Get_Sibling failed(0xd)
17:29:05 906	ERROR:Search_ADB-->CM_Get_Sibling failed(0xd)
17:29:11 253	ERROR:Search_ADB-->CM_Get_Sibling failed(0xd)
17:30:31 308	ERROR:Search_ADB-->CM_Get_Sibling failed(0xd)
17:30:36 563	Error:EnumerateHubPorts-->DeviceIoControl failed,err=0x48f
17:43:51 902	ERROR:Search_ADB-->CM_Get_Sibling failed(0xd)
17:43:57 187	ERROR:Search_ADB-->CM_Get_Sibling failed(0xd)
17:51:17 096	Error:EnumerateHubPorts-->DeviceIoControl failed,err=0x48f
17:51:17 323	ERROR:Search_ADB-->CM_Get_Sibling failed(0xd)
17:51:22 499	ERROR:Search_ADB-->CM_Get_Sibling failed(0xd)
17:52:15 066	ERROR:Search_ADB-->CM_Get_Sibling failed(0xd)
17:52:20 381	Error:EnumerateHubPorts-->DeviceIoControl failed,err=0x48f
17:52:31 910	Error:EnumerateHubPorts-->DeviceIoControl failed,err=0x48f
17:52:37 257	ERROR:Search_ADB-->CM_Get_Sibling failed(0xd)
17:58:29 511	ERROR:Search_ADB-->CM_Get_Sibling failed(0xd)
17:58:34 767	ERROR:Search_ADB-->CM_Get_Sibling failed(0xd)
17:59:35 377	ERROR:Search_ADB-->CM_Get_Sibling failed(0xd)
17:59:40 558	Error:EnumerateHubPorts-->DeviceIoControl failed,err=0x48f
18:02:03 342	ERROR:Search_ADB-->CM_Get_Sibling failed(0xd)
18:02:08 595	ERROR:Search_ADB-->CM_Get_Sibling failed(0xd)
18:03:30 862	Error:EnumerateHubPorts-->DeviceIoControl failed,err=0x48f
18:03:36 300	ERROR:Search_ADB-->CM_Get_Sibling failed(0xd)
18:04:52 336	ERROR:Search_ADB-->CM_Get_Sibling failed(0xd)
18:04:58 922	Error:EnumerateHubPorts-->DeviceIoControl failed,err=0x48f
18:05:10 100	Error:EnumerateHubPorts-->DeviceIoControl failed,err=0x48f
18:05:15 395	Error:EnumerateHubPorts-->DeviceIoControl failed,err=0x48f
18:06:26 980	Error:EnumerateHubPorts-->DeviceIoControl failed,err=0x48f
18:06:27 222	ERROR:Search_ADB-->CM_Get_Sibling failed(0xd)
18:06:32 356	Error:EnumerateHubPorts-->DeviceIoControl failed,err=0x48f
18:12:32 104	ERROR:Search_ADB-->CM_Get_Sibling failed(0xd)
18:12:37 374	Error:EnumerateHubPorts-->DeviceIoControl failed,err=0x48f
18:14:07 854	ERROR:Search_ADB-->CM_Get_Sibling failed(0xd)
18:14:13 134	Error:EnumerateHubPorts-->DeviceIoControl failed,err=0x48f
18:14:38 357	Error:EnumerateHubPorts-->DeviceIoControl failed,err=0x48f
18:14:47 191	Error:EnumerateHubPorts-->DeviceIoControl failed,err=0x48f
18:18:05 224	ERROR:Search_ADB-->CM_Get_Sibling failed(0xd)
18:18:10 035	ERROR:Search_ADB-->CM_Get_Sibling failed(0xd)
18:21:56 990	Error:EnumerateHubPorts-->DeviceIoControl failed,err=0x48f
18:24:04 380	Error:EnumerateHubPorts-->DeviceIoControl failed,err=0x48f
18:36:03 792	ERROR:Search_ADB-->CM_Get_Sibling failed(0xd)
18:36:09 071	ERROR:Search_ADB-->CM_Get_Sibling failed(0xd)
19:05:30 676	ERROR:Search_ADB-->CM_Get_Sibling failed(0xd)
19:05:35 961	ERROR:Search_ADB-->CM_Get_Sibling failed(0xd)
19:06:21 770	ERROR:Search_ADB-->CM_Get_Sibling failed(0xd)
19:06:26 936	ERROR:Search_ADB-->CM_Get_Sibling failed(0xd)
19:07:59 832	Error:EnumerateHubPorts-->DeviceIoControl failed,err=0x48f
19:09:45 827	Error:EnumerateHubPorts-->DeviceIoControl failed,err=0x48f
19:14:00 182	Error:EnumerateHubPorts-->DeviceIoControl failed,err=0x48f
19:14:05 689	ERROR:Search_ADB-->CM_Get_Sibling failed(0xd)
19:27:56 828	ERROR:Search_ADB-->CM_Get_Sibling failed(0xd)
19:28:01 943	Error:EnumerateHubPorts-->DeviceIoControl failed,err=0x48f
19:28:02 169	ERROR:Search_ADB-->CM_Get_Sibling failed(0xd)
19:30:06 106	ERROR:Search_ADB-->CM_Get_Sibling failed(0xd)
19:30:11 258	Error:EnumerateHubPorts-->DeviceIoControl failed,err=0x48f
19:31:51 715	ERROR:Search_ADB-->CM_Get_Sibling failed(0xd)
19:31:56 925	Error:EnumerateHubPorts-->DeviceIoControl failed,err=0x48f
19:40:22 139	Error:EnumerateHubPorts-->DeviceIoControl failed,err=0x48f
19:46:35 610	Error:EnumerateHubPorts-->DeviceIoControl failed,err=0x48f
19:46:40 971	Error:EnumerateHubPorts-->DeviceIoControl failed,err=0x48f
19:47:28 447	ERROR:Search_ADB-->CM_Get_Sibling failed(0xd)
19:47:33 647	Error:EnumerateHubPorts-->DeviceIoControl failed,err=0x48f
19:50:38 250	ERROR:Search_ADB-->CM_Get_Sibling failed(0xd)
19:50:42 892	Error:EnumerateHubPorts-->DeviceIoControl failed,err=0x48f
19:51:38 186	Error:EnumerateHubPorts-->DeviceIoControl failed,err=0x48f
19:51:44 817	Error:EnumerateHubPorts-->DeviceIoControl failed,err=0x48f
19:51:52 709	ERROR:Search_ADB-->CM_Get_Sibling failed(0xd)
19:51:57 858	Error:EnumerateHubPorts-->DeviceIoControl failed,err=0x48f
19:53:12 713	ERROR:Search_ADB-->CM_Get_Sibling failed(0xd)
19:53:18 090	Error:EnumerateHubPorts-->DeviceIoControl failed,err=0x48f
19:53:57 109	ERROR:Search_ADB-->CM_Get_Sibling failed(0xd)
19:55:37 424	ERROR:Search_ADB-->CM_Get_Sibling failed(0xd)
19:55:42 573	Error:EnumerateHubPorts-->DeviceIoControl failed,err=0x48f
19:56:00 280	ERROR:Search_ADB-->CM_Get_Sibling failed(0xd)
19:56:05 426	Error:EnumerateHubPorts-->DeviceIoControl failed,err=0x48f
20:29:28 235	Error:EnumerateHubPorts-->DeviceIoControl failed,err=0x48f
20:31:36 368	ERROR:Search_ADB-->CM_Get_Sibling failed(0xd)
20:31:41 552	Error:EnumerateHubPorts-->DeviceIoControl failed,err=0x48f
